  0
SECTION
  2
HEADER
  9
$ACADVER
  1
AC1014
  9
$HANDSEED
  5
FFFF
  9
$MEASUREMENT
 70
     1
  0
ENDSEC
  0
SECTION
  2
TABLES
  0
TABLE
  2
VPORT
  5
8
330
0
100
AcDbSymbolTable
 70
     4
  0
VPORT
  5
2E
330
8
100
AcDbSymbolTableRecord
100
AcDbViewportTableRecord
  2
*ACTIVE
 70
     0
 10
0.0
 20
0.0
 11
1.0
 21
1.0
 12
210.0
 22
148.5
 13
0.0
 23
0.0
 14
10.0
 24
10.0
 15
10.0
 25
10.0
 16
0.0
 26
0.0
 36
1.0
 17
0.0
 27
0.0
 37
0.0
 40
341.0
 41
1.24
 42
50.0
 43
0.0
 44
0.0
 50
0.0
 51
0.0
 71
     0
 72
   100
 73
     1
 74
     3
 75
     0
 76
     0
 77
     0
 78
     0
  0
ENDTAB
  0
TABLE
  2
LTYPE
  5
5
330
0
100
AcDbSymbolTable
 70
     1
  0
LTYPE
  5
14
330
5
100
AcDbSymbolTableRecord
100
AcDbLinetypeTableRecord
  2
BYBLOCK
 70
     0
  3

 72
    65
 73
     0
 40
0.0
  0
LTYPE
  5
15
330
5
100
AcDbSymbolTableRecord
100
AcDbLinetypeTableRecord
  2
BYLAYER
 70
     0
  3

 72
    65
 73
     0
 40
0.0
  0
LTYPE
  5
16
330
5
100
AcDbSymbolTableRecord
100
AcDbLinetypeTableRecord
  2
CONTINUOUS
 70
     0
  3
Solid line
 72
    65
 73
     0
 40
0.0
  0
ENDTAB
  0
TABLE
  2
LAYER
  5
2
100
AcDbSymbolTable
 70
2
  0
LAYER
  5
50
100
AcDbSymbolTableRecord
100
AcDbLayerTableRecord
  2
0
 70
0
  6
CONTINUOUS
  0
LAYER
  5
51
100
AcDbSymbolTableRecord
100
AcDbLayerTableRecord
  2
Layer_1
 70
0
  6
CONTINUOUS
  0
ENDTAB
  0
TABLE
  2
STYLE
  5
3
330
0
100
AcDbSymbolTable
 70
     1
  0
STYLE
  5
11
330
3
100
AcDbSymbolTableRecord
100
AcDbTextStyleTableRecord
  2
STANDARD
 70
     0
 40
0.0
 41
1.0
 50
0.0
 71
     0
 42
2.5
  3
txt
  4

  0
ENDTAB
  0
TABLE
  2
VIEW
  5
6
330
0
100
AcDbSymbolTable
 70
     0
  0
ENDTAB
  0
TABLE
  2
UCS
  5
7
330
0
100
AcDbSymbolTable
 70
     0
  0
ENDTAB
  0
TABLE
  2
APPID
  5
9
330
0
100
AcDbSymbolTable
 70
     2
  0
APPID
  5
12
330
9
100
AcDbSymbolTableRecord
100
AcDbRegAppTableRecord
  2
ACAD
 70
     0
  0
ENDTAB
  0
TABLE
  2
DIMSTYLE
  5
A
330
0
100
AcDbSymbolTable
 70
     1
  0
DIMSTYLE
105
27
330
A
100
AcDbSymbolTableRecord
100
AcDbDimStyleTableRecord
  2
ISO-25
 70
     0
  3

  4

  5

  6

  7

 40
1.0
 41
2.5
 42
0.625
 43
3.75
 44
1.25
 45
0.0
 46
0.0
 47
0.0
 48
0.0
140
2.5
141
2.5
142
0.0
143
0.03937007874016
144
1.0
145
0.0
146
1.0
147
0.625
 71
     0
 72
     0
 73
     0
 74
     0
 75
     0
 76
     0
 77
     1
 78
     8
170
     0
171
     3
172
     1
173
     0
174
     0
175
     0
176
     0
177
     0
178
     0
270
     2
271
     2
272
     2
273
     2
274
     3
340
11
275
     0
280
     0
281
     0
282
     0
283
     0
284
     8
285
     0
286
     0
287
     3
288
     0
  0
ENDTAB
  0
TABLE
  2
BLOCK_RECORD
  5
1
330
0
100
AcDbSymbolTable
 70
     1
  0
BLOCK_RECORD
  5
1F
330
1
100
AcDbSymbolTableRecord
100
AcDbBlockTableRecord
  2
*MODEL_SPACE
  0
BLOCK_RECORD
  5
1B
330
1
100
AcDbSymbolTableRecord
100
AcDbBlockTableRecord
  2
*PAPER_SPACE
  0
ENDTAB
  0
ENDSEC
  0
SECTION
  2
BLOCKS
  0
BLOCK
  5
20
330
1F
100
AcDbEntity
  8
0
100
AcDbBlockBegin
  2
*MODEL_SPACE
 70
     0
 10
0.0
 20
0.0
 30
0.0
  3
*MODEL_SPACE
  1

  0
ENDBLK
  5
21
330
1F
100
AcDbEntity
  8
0
100
AcDbBlockEnd
  0
BLOCK
  5
1C
330
1B
100
AcDbEntity
 67
     1
  8
0
100
AcDbBlockBegin
  2
*PAPER_SPACE
  1

  0
ENDBLK
  5
1D
330
1B
100
AcDbEntity
 67
     1
  8
0
100
AcDbBlockEnd
  0
ENDSEC
  0
SECTION
  2
ENTITIES
  0
LINE
  5
100
100
AcDbEntity
  8
Layer_1
 62
1
100
AcDbLine
 10
148.456870
 20
188.142140
 30
0.0
 11
148.456870
 21
186.597530
 31
0.0
  0
LINE
  5
101
100
AcDbEntity
  8
Layer_1
 62
1
100
AcDbLine
 10
148.456870
 20
188.142140
 30
0.0
 11
149.076870
 21
186.597530
 31
0.0
  0
LINE
  5
102
100
AcDbEntity
  8
Layer_1
 62
1
100
AcDbLine
 10
149.697870
 20
188.142140
 30
0.0
 11
149.076870
 21
186.597530
 31
0.0
  0
LINE
  5
103
100
AcDbEntity
  8
Layer_1
 62
1
100
AcDbLine
 10
149.697870
 20
188.142140
 30
0.0
 11
149.697870
 21
186.597530
 31
0.0
  0
LINE
  5
104
100
AcDbEntity
  8
Layer_1
 62
1
100
AcDbLine
 10
151.173870
 20
187.626880
 30
0.0
 11
151.173870
 21
186.597530
 31
0.0
  0
LINE
  5
105
100
AcDbEntity
  8
Layer_1
 62
1
100
AcDbLine
 10
151.173870
 20
187.406300
 30
0.0
 11
151.017870
 21
187.553350
 31
0.0
  0
LINE
  5
106
100
AcDbEntity
  8
Layer_1
 62
1
100
AcDbLine
 10
151.017870
 20
187.553350
 30
0.0
 11
150.862870
 21
187.626850
 31
0.0
  0
LINE
  5
107
100
AcDbEntity
  8
Layer_1
 62
1
100
AcDbLine
 10
150.862870
 20
187.626850
 30
0.0
 11
150.629870
 21
187.626850
 31
0.0
  0
LINE
  5
108
100
AcDbEntity
  8
Layer_1
 62
1
100
AcDbLine
 10
150.629870
 20
187.626850
 30
0.0
 11
150.474870
 21
187.553350
 31
0.0
  0
LINE
  5
109
100
AcDbEntity
  8
Layer_1
 62
1
100
AcDbLine
 10
150.474870
 20
187.553350
 30
0.0
 11
150.319870
 21
187.406300
 31
0.0
  0
LINE
  5
10a
100
AcDbEntity
  8
Layer_1
 62
1
100
AcDbLine
 10
150.319870
 20
187.406300
 30
0.0
 11
150.239870
 21
187.185730
 31
0.0
  0
LINE
  5
10b
100
AcDbEntity
  8
Layer_1
 62
1
100
AcDbLine
 10
150.239870
 20
187.185730
 30
0.0
 11
150.239870
 21
187.038680
 31
0.0
  0
LINE
  5
10c
100
AcDbEntity
  8
Layer_1
 62
1
100
AcDbLine
 10
150.239870
 20
187.038680
 30
0.0
 11
150.319870
 21
186.818100
 31
0.0
  0
LINE
  5
10d
100
AcDbEntity
  8
Layer_1
 62
1
100
AcDbLine
 10
150.319870
 20
186.818100
 30
0.0
 11
150.474870
 21
186.671050
 31
0.0
  0
LINE
  5
10e
100
AcDbEntity
  8
Layer_1
 62
1
100
AcDbLine
 10
150.474870
 20
186.671050
 30
0.0
 11
150.629870
 21
186.597550
 31
0.0
  0
LINE
  5
10f
100
AcDbEntity
  8
Layer_1
 62
1
100
AcDbLine
 10
150.629870
 20
186.597550
 30
0.0
 11
150.862870
 21
186.597550
 31
0.0
  0
LINE
  5
110
100
AcDbEntity
  8
Layer_1
 62
1
100
AcDbLine
 10
150.862870
 20
186.597550
 30
0.0
 11
151.017870
 21
186.671050
 31
0.0
  0
LINE
  5
111
100
AcDbEntity
  8
Layer_1
 62
1
100
AcDbLine
 10
151.017870
 20
186.671050
 30
0.0
 11
151.173870
 21
186.818100
 31
0.0
  0
LINE
  5
112
100
AcDbEntity
  8
Layer_1
 62
1
100
AcDbLine
 10
152.647870
 20
188.142140
 30
0.0
 11
152.647870
 21
186.597530
 31
0.0
  0
LINE
  5
113
100
AcDbEntity
  8
Layer_1
 62
1
100
AcDbLine
 10
152.647870
 20
187.406300
 30
0.0
 11
152.492870
 21
187.553350
 31
0.0
  0
LINE
  5
114
100
AcDbEntity
  8
Layer_1
 62
1
100
AcDbLine
 10
152.492870
 20
187.553350
 30
0.0
 11
152.336870
 21
187.626850
 31
0.0
  0
LINE
  5
115
100
AcDbEntity
  8
Layer_1
 62
1
100
AcDbLine
 10
152.336870
 20
187.626850
 30
0.0
 11
152.104870
 21
187.626850
 31
0.0
  0
LINE
  5
116
100
AcDbEntity
  8
Layer_1
 62
1
100
AcDbLine
 10
152.104870
 20
187.626850
 30
0.0
 11
151.948870
 21
187.553350
 31
0.0
  0
LINE
  5
117
100
AcDbEntity
  8
Layer_1
 62
1
100
AcDbLine
 10
151.948870
 20
187.553350
 30
0.0
 11
151.793870
 21
187.406300
 31
0.0
  0
LINE
  5
118
100
AcDbEntity
  8
Layer_1
 62
1
100
AcDbLine
 10
151.793870
 20
187.406300
 30
0.0
 11
151.713870
 21
187.185730
 31
0.0
  0
LINE
  5
119
100
AcDbEntity
  8
Layer_1
 62
1
100
AcDbLine
 10
151.713870
 20
187.185730
 30
0.0
 11
151.713870
 21
187.038680
 31
0.0
  0
LINE
  5
11a
100
AcDbEntity
  8
Layer_1
 62
1
100
AcDbLine
 10
151.713870
 20
187.038680
 30
0.0
 11
151.793870
 21
186.818100
 31
0.0
  0
LINE
  5
11b
100
AcDbEntity
  8
Layer_1
 62
1
100
AcDbLine
 10
151.793870
 20
186.818100
 30
0.0
 11
151.948870
 21
186.671050
 31
0.0
  0
LINE
  5
11c
100
AcDbEntity
  8
Layer_1
 62
1
100
AcDbLine
 10
151.948870
 20
186.671050
 30
0.0
 11
152.104870
 21
186.597550
 31
0.0
  0
LINE
  5
11d
100
AcDbEntity
  8
Layer_1
 62
1
100
AcDbLine
 10
152.104870
 20
186.597550
 30
0.0
 11
152.336870
 21
186.597550
 31
0.0
  0
LINE
  5
11e
100
AcDbEntity
  8
Layer_1
 62
1
100
AcDbLine
 10
152.336870
 20
186.597550
 30
0.0
 11
152.492870
 21
186.671050
 31
0.0
  0
LINE
  5
11f
100
AcDbEntity
  8
Layer_1
 62
1
100
AcDbLine
 10
152.492870
 20
186.671050
 30
0.0
 11
152.647870
 21
186.818100
 31
0.0
  0
LINE
  5
120
100
AcDbEntity
  8
Layer_1
 62
1
100
AcDbLine
 10
153.190870
 20
187.185730
 30
0.0
 11
154.122870
 21
187.185730
 31
0.0
  0
LINE
  5
121
100
AcDbEntity
  8
Layer_1
 62
1
100
AcDbLine
 10
154.122870
 20
187.185730
 30
0.0
 11
154.122870
 21
187.332780
 31
0.0
  0
LINE
  5
122
100
AcDbEntity
  8
Layer_1
 62
1
100
AcDbLine
 10
154.122870
 20
187.332780
 30
0.0
 11
154.052870
 21
187.479830
 31
0.0
  0
LINE
  5
123
100
AcDbEntity
  8
Layer_1
 62
1
100
AcDbLine
 10
154.052870
 20
187.479830
 30
0.0
 11
153.982870
 21
187.553330
 31
0.0
  0
LINE
  5
124
100
AcDbEntity
  8
Layer_1
 62
1
100
AcDbLine
 10
153.982870
 20
187.553330
 30
0.0
 11
153.827870
 21
187.626830
 31
0.0
  0
LINE
  5
125
100
AcDbEntity
  8
Layer_1
 62
1
100
AcDbLine
 10
153.827870
 20
187.626830
 30
0.0
 11
153.594870
 21
187.626830
 31
0.0
  0
LINE
  5
126
100
AcDbEntity
  8
Layer_1
 62
1
100
AcDbLine
 10
153.594870
 20
187.626830
 30
0.0
 11
153.439870
 21
187.553330
 31
0.0
  0
LINE
  5
127
100
AcDbEntity
  8
Layer_1
 62
1
100
AcDbLine
 10
153.439870
 20
187.553330
 30
0.0
 11
153.283870
 21
187.406280
 31
0.0
  0
LINE
  5
128
100
AcDbEntity
  8
Layer_1
 62
1
100
AcDbLine
 10
153.283870
 20
187.406280
 30
0.0
 11
153.213870
 21
187.185700
 31
0.0
  0
LINE
  5
129
100
AcDbEntity
  8
Layer_1
 62
1
100
AcDbLine
 10
153.213870
 20
187.185700
 30
0.0
 11
153.213870
 21
187.038650
 31
0.0
  0
LINE
  5
12a
100
AcDbEntity
  8
Layer_1
 62
1
100
AcDbLine
 10
153.213870
 20
187.038650
 30
0.0
 11
153.283870
 21
186.818080
 31
0.0
  0
LINE
  5
12b
100
AcDbEntity
  8
Layer_1
 62
1
100
AcDbLine
 10
153.283870
 20
186.818080
 30
0.0
 11
153.439870
 21
186.671030
 31
0.0
  0
LINE
  5
12c
100
AcDbEntity
  8
Layer_1
 62
1
100
AcDbLine
 10
153.439870
 20
186.671030
 30
0.0
 11
153.594870
 21
186.597530
 31
0.0
  0
LINE
  5
12d
100
AcDbEntity
  8
Layer_1
 62
1
100
AcDbLine
 10
153.594870
 20
186.597530
 30
0.0
 11
153.827870
 21
186.597530
 31
0.0
  0
LINE
  5
12e
100
AcDbEntity
  8
Layer_1
 62
1
100
AcDbLine
 10
153.827870
 20
186.597530
 30
0.0
 11
153.982870
 21
186.671030
 31
0.0
  0
LINE
  5
12f
100
AcDbEntity
  8
Layer_1
 62
1
100
AcDbLine
 10
153.982870
 20
186.671030
 30
0.0
 11
154.137870
 21
186.818080
 31
0.0
  0
LINE
  5
130
100
AcDbEntity
  8
Layer_1
 62
1
100
AcDbLine
 10
155.830870
 20
187.626880
 30
0.0
 11
156.140870
 21
186.597530
 31
0.0
  0
LINE
  5
131
100
AcDbEntity
  8
Layer_1
 62
1
100
AcDbLine
 10
156.450870
 20
187.626880
 30
0.0
 11
156.140870
 21
186.597530
 31
0.0
  0
LINE
  5
132
100
AcDbEntity
  8
Layer_1
 62
1
100
AcDbLine
 10
156.450870
 20
187.626880
 30
0.0
 11
156.761870
 21
186.597530
 31
0.0
  0
LINE
  5
133
100
AcDbEntity
  8
Layer_1
 62
1
100
AcDbLine
 10
157.072870
 20
187.626880
 30
0.0
 11
156.761870
 21
186.597530
 31
0.0
  0
LINE
  5
134
100
AcDbEntity
  8
Layer_1
 62
1
100
AcDbLine
 10
157.537870
 20
188.142140
 30
0.0
 11
157.607870
 21
188.068640
 31
0.0
  0
LINE
  5
135
100
AcDbEntity
  8
Layer_1
 62
1
100
AcDbLine
 10
157.607870
 20
188.068640
 30
0.0
 11
157.687870
 21
188.142140
 31
0.0
  0
LINE
  5
136
100
AcDbEntity
  8
Layer_1
 62
1
100
AcDbLine
 10
157.687870
 20
188.142140
 30
0.0
 11
157.607870
 21
188.215640
 31
0.0
  0
LINE
  5
137
100
AcDbEntity
  8
Layer_1
 62
1
100
AcDbLine
 10
157.607870
 20
188.215640
 30
0.0
 11
157.537870
 21
188.142140
 31
0.0
  0
LINE
  5
138
100
AcDbEntity
  8
Layer_1
 62
1
100
AcDbLine
 10
157.607870
 20
187.626880
 30
0.0
 11
157.607870
 21
186.597530
 31
0.0
  0
LINE
  5
139
100
AcDbEntity
  8
Layer_1
 62
1
100
AcDbLine
 10
158.314870
 20
188.142140
 30
0.0
 11
158.314870
 21
186.891630
 31
0.0
  0
LINE
  5
13a
100
AcDbEntity
  8
Layer_1
 62
1
100
AcDbLine
 10
158.314870
 20
186.891630
 30
0.0
 11
158.394870
 21
186.671050
 31
0.0
  0
LINE
  5
13b
100
AcDbEntity
  8
Layer_1
 62
1
100
AcDbLine
 10
158.394870
 20
186.671050
 30
0.0
 11
158.549870
 21
186.597550
 31
0.0
  0
LINE
  5
13c
100
AcDbEntity
  8
Layer_1
 62
1
100
AcDbLine
 10
158.549870
 20
186.597550
 30
0.0
 11
158.704870
 21
186.597550
 31
0.0
  0
LINE
  5
13d
100
AcDbEntity
  8
Layer_1
 62
1
100
AcDbLine
 10
158.083870
 20
187.626900
 30
0.0
 11
158.626870
 21
187.626900
 31
0.0
  0
LINE
  5
13e
100
AcDbEntity
  8
Layer_1
 62
1
100
AcDbLine
 10
159.167870
 20
188.142140
 30
0.0
 11
159.167870
 21
186.597530
 31
0.0
  0
LINE
  5
13f
100
AcDbEntity
  8
Layer_1
 62
1
100
AcDbLine
 10
159.167870
 20
187.332780
 30
0.0
 11
159.400870
 21
187.553350
 31
0.0
  0
LINE
  5
140
100
AcDbEntity
  8
Layer_1
 62
1
100
AcDbLine
 10
159.400870
 20
187.553350
 30
0.0
 11
159.555870
 21
187.626850
 31
0.0
  0
LINE
  5
141
100
AcDbEntity
  8
Layer_1
 62
1
100
AcDbLine
 10
159.555870
 20
187.626850
 30
0.0
 11
159.788870
 21
187.626850
 31
0.0
  0
LINE
  5
142
100
AcDbEntity
  8
Layer_1
 62
1
100
AcDbLine
 10
159.788870
 20
187.626850
 30
0.0
 11
159.943870
 21
187.553350
 31
0.0
  0
LINE
  5
143
100
AcDbEntity
  8
Layer_1
 62
1
100
AcDbLine
 10
159.943870
 20
187.553350
 30
0.0
 11
160.013870
 21
187.332780
 31
0.0
  0
LINE
  5
144
100
AcDbEntity
  8
Layer_1
 62
1
100
AcDbLine
 10
160.013870
 20
187.332780
 30
0.0
 11
160.013870
 21
186.597530
 31
0.0
  0
LINE
  5
145
100
AcDbEntity
  8
Layer_1
 62
1
100
AcDbLine
 10
162.565870
 20
186.597530
 30
0.0
 11
162.433870
 21
186.717520
 31
0.0
  0
SPLINE
  5
146
100
AcDbEntity
  8
Layer_1
 62
1
100
AcDbSpline
 70
8
 71
3
 72
8
 73
4
 74
0
 40
0
 40
0
 40
0
 40
0
 40
1
 40
1
 40
1
 40
1
 10
162.433870
 20
186.717520
 30
0.0
 10
161.964870
 20
187.142790
 30
0.0
 10
161.655870
 20
187.424530
 30
0.0
 10
161.655870
 20
187.767460
 30
0.0
  0
SPLINE
  5
147
100
AcDbEntity
  8
Layer_1
 62
1
100
AcDbSpline
 70
8
 71
3
 72
8
 73
4
 74
0
 40
0
 40
0
 40
0
 40
0
 40
1
 40
1
 40
1
 40
1
 10
161.655870
 20
187.767460
 30
0.0
 10
161.655870
 20
188.049200
 30
0.0
 10
161.875870
 20
188.268010
 30
0.0
 10
162.155870
 20
188.268010
 30
0.0
  0
SPLINE
  5
148
100
AcDbEntity
  8
Layer_1
 62
1
100
AcDbSpline
 70
8
 71
3
 72
8
 73
4
 74
0
 40
0
 40
0
 40
0
 40
0
 40
1
 40
1
 40
1
 40
1
 10
162.155870
 20
188.268010
 30
0.0
 10
162.314870
 20
188.268010
 30
0.0
 10
162.466870
 20
188.194510
 30
0.0
 10
162.565870
 20
188.079200
 30
0.0
  0
SPLINE
  5
149
100
AcDbEntity
  8
Layer_1
 62
1
100
AcDbSpline
 70
8
 71
3
 72
8
 73
4
 74
0
 40
0
 40
0
 40
0
 40
0
 40
1
 40
1
 40
1
 40
1
 10
162.565870
 20
188.079200
 30
0.0
 10
162.665870
 20
188.194490
 30
0.0
 10
162.817870
 20
188.268010
 30
0.0
 10
162.974870
 20
188.268010
 30
0.0
  0
SPLINE
  5
14a
100
AcDbEntity
  8
Layer_1
 62
1
100
AcDbSpline
 70
8
 71
3
 72
8
 73
4
 74
0
 40
0
 40
0
 40
0
 40
0
 40
1
 40
1
 40
1
 40
1
 10
162.974870
 20
188.268010
 30
0.0
 10
163.255870
 20
188.268010
 30
0.0
 10
163.476870
 20
188.049200
 30
0.0
 10
163.476870
 20
187.767460
 30
0.0
  0
SPLINE
  5
14b
100
AcDbEntity
  8
Layer_1
 62
1
100
AcDbSpline
 70
8
 71
3
 72
8
 73
4
 74
0
 40
0
 40
0
 40
0
 40
0
 40
1
 40
1
 40
1
 40
1
 10
163.476870
 20
187.767460
 30
0.0
 10
163.476870
 20
187.424530
 30
0.0
 10
163.166870
 20
187.142790
 30
0.0
 10
162.697870
 20
186.717520
 30
0.0
  0
LINE
  5
14c
100
AcDbEntity
  8
Layer_1
 62
1
100
AcDbLine
 10
162.697870
 20
186.717520
 30
0.0
 11
162.565870
 21
186.597530
 31
0.0
  0
LINE
  5
14d
100
AcDbEntity
  8
Layer_1
 62
1
100
AcDbLine
 10
165.713870
 20
187.626880
 30
0.0
 11
165.713870
 21
186.597530
 31
0.0
  0
LINE
  5
14e
100
AcDbEntity
  8
Layer_1
 62
1
100
AcDbLine
 10
165.713870
 20
187.406300
 30
0.0
 11
165.558870
 21
187.553350
 31
0.0
  0
LINE
  5
14f
100
AcDbEntity
  8
Layer_1
 62
1
100
AcDbLine
 10
165.558870
 20
187.553350
 30
0.0
 11
165.403870
 21
187.626850
 31
0.0
  0
LINE
  5
150
100
AcDbEntity
  8
Layer_1
 62
1
100
AcDbLine
 10
165.403870
 20
187.626850
 30
0.0
 11
165.170870
 21
187.626850
 31
0.0
  0
LINE
  5
151
100
AcDbEntity
  8
Layer_1
 62
1
100
AcDbLine
 10
165.170870
 20
187.626850
 30
0.0
 11
165.015870
 21
187.553350
 31
0.0
  0
LINE
  5
152
100
AcDbEntity
  8
Layer_1
 62
1
100
AcDbLine
 10
165.015870
 20
187.553350
 30
0.0
 11
164.859870
 21
187.406300
 31
0.0
  0
LINE
  5
153
100
AcDbEntity
  8
Layer_1
 62
1
100
AcDbLine
 10
164.859870
 20
187.406300
 30
0.0
 11
164.779870
 21
187.185730
 31
0.0
  0
LINE
  5
154
100
AcDbEntity
  8
Layer_1
 62
1
100
AcDbLine
 10
164.779870
 20
187.185730
 30
0.0
 11
164.779870
 21
187.038680
 31
0.0
  0
LINE
  5
155
100
AcDbEntity
  8
Layer_1
 62
1
100
AcDbLine
 10
164.779870
 20
187.038680
 30
0.0
 11
164.859870
 21
186.818100
 31
0.0
  0
LINE
  5
156
100
AcDbEntity
  8
Layer_1
 62
1
100
AcDbLine
 10
164.859870
 20
186.818100
 30
0.0
 11
165.015870
 21
186.671050
 31
0.0
  0
LINE
  5
157
100
AcDbEntity
  8
Layer_1
 62
1
100
AcDbLine
 10
165.015870
 20
186.671050
 30
0.0
 11
165.170870
 21
186.597550
 31
0.0
  0
LINE
  5
158
100
AcDbEntity
  8
Layer_1
 62
1
100
AcDbLine
 10
165.170870
 20
186.597550
 30
0.0
 11
165.403870
 21
186.597550
 31
0.0
  0
LINE
  5
159
100
AcDbEntity
  8
Layer_1
 62
1
100
AcDbLine
 10
165.403870
 20
186.597550
 30
0.0
 11
165.558870
 21
186.671050
 31
0.0
  0
LINE
  5
15a
100
AcDbEntity
  8
Layer_1
 62
1
100
AcDbLine
 10
165.558870
 20
186.671050
 30
0.0
 11
165.713870
 21
186.818100
 31
0.0
  0
LINE
  5
15b
100
AcDbEntity
  8
Layer_1
 62
1
100
AcDbLine
 10
166.412870
 20
188.142140
 30
0.0
 11
166.412870
 21
186.891630
 31
0.0
  0
LINE
  5
15c
100
AcDbEntity
  8
Layer_1
 62
1
100
AcDbLine
 10
166.412870
 20
186.891630
 30
0.0
 11
166.492870
 21
186.671050
 31
0.0
  0
LINE
  5
15d
100
AcDbEntity
  8
Layer_1
 62
1
100
AcDbLine
 10
166.492870
 20
186.671050
 30
0.0
 11
166.648870
 21
186.597550
 31
0.0
  0
LINE
  5
15e
100
AcDbEntity
  8
Layer_1
 62
1
100
AcDbLine
 10
166.648870
 20
186.597550
 30
0.0
 11
166.803870
 21
186.597550
 31
0.0
  0
LINE
  5
15f
100
AcDbEntity
  8
Layer_1
 62
1
100
AcDbLine
 10
166.182870
 20
187.626900
 30
0.0
 11
166.725870
 21
187.626900
 31
0.0
  0
LINE
  5
160
100
AcDbEntity
  8
Layer_1
 62
1
100
AcDbLine
 10
147.735870
 20
185.225340
 30
0.0
 11
148.055870
 21
184.182060
 31
0.0
  0
LINE
  5
161
100
AcDbEntity
  8
Layer_1
 62
1
100
AcDbLine
 10
148.377870
 20
185.225340
 30
0.0
 11
148.055870
 21
184.182060
 31
0.0
  0
LINE
  5
162
100
AcDbEntity
  8
Layer_1
 62
1
100
AcDbLine
 10
148.377870
 20
185.225340
 30
0.0
 11
148.698870
 21
184.182060
 31
0.0
  0
LINE
  5
163
100
AcDbEntity
  8
Layer_1
 62
1
100
AcDbLine
 10
149.019870
 20
185.225340
 30
0.0
 11
148.698870
 21
184.182060
 31
0.0
  0
LINE
  5
164
100
AcDbEntity
  8
Layer_1
 62
1
100
AcDbLine
 10
149.501870
 20
185.225340
 30
0.0
 11
149.822870
 21
184.182060
 31
0.0
  0
LINE
  5
165
100
AcDbEntity
  8
Layer_1
 62
1
100
AcDbLine
 10
150.144870
 20
185.225340
 30
0.0
 11
149.822870
 21
184.182060
 31
0.0
  0
LINE
  5
166
100
AcDbEntity
  8
Layer_1
 62
1
100
AcDbLine
 10
150.144870
 20
185.225340
 30
0.0
 11
150.465870
 21
184.182060
 31
0.0
  0
LINE
  5
167
100
AcDbEntity
  8
Layer_1
 62
1
100
AcDbLine
 10
150.786870
 20
185.225340
 30
0.0
 11
150.465870
 21
184.182060
 31
0.0
  0
LINE
  5
168
100
AcDbEntity
  8
Layer_1
 62
1
100
AcDbLine
 10
151.268870
 20
185.225340
 30
0.0
 11
151.589870
 21
184.182060
 31
0.0
  0
LINE
  5
169
100
AcDbEntity
  8
Layer_1
 62
1
100
AcDbLine
 10
151.911870
 20
185.225340
 30
0.0
 11
151.589870
 21
184.182060
 31
0.0
  0
LINE
  5
16a
100
AcDbEntity
  8
Layer_1
 62
1
100
AcDbLine
 10
151.911870
 20
185.225340
 30
0.0
 11
152.232870
 21
184.182060
 31
0.0
  0
LINE
  5
16b
100
AcDbEntity
  8
Layer_1
 62
1
100
AcDbLine
 10
152.553870
 20
185.225340
 30
0.0
 11
152.232870
 21
184.182060
 31
0.0
  0
LINE
  5
16c
100
AcDbEntity
  8
Layer_1
 62
1
100
AcDbLine
 10
153.116870
 20
184.554660
 30
0.0
 11
153.036870
 21
184.480160
 31
0.0
  0
LINE
  5
16d
100
AcDbEntity
  8
Layer_1
 62
1
100
AcDbLine
 10
153.036870
 20
184.480160
 30
0.0
 11
153.116870
 21
184.405660
 31
0.0
  0
LINE
  5
16e
100
AcDbEntity
  8
Layer_1
 62
1
100
AcDbLine
 10
153.116870
 20
184.405660
 30
0.0
 11
153.196870
 21
184.480160
 31
0.0
  0
LINE
  5
16f
100
AcDbEntity
  8
Layer_1
 62
1
100
AcDbLine
 10
153.196870
 20
184.480160
 30
0.0
 11
153.116870
 21
184.554660
 31
0.0
  0
LINE
  5
170
100
AcDbEntity
  8
Layer_1
 62
1
100
AcDbLine
 10
153.757870
 20
185.225340
 30
0.0
 11
153.757870
 21
184.182060
 31
0.0
  0
LINE
  5
171
100
AcDbEntity
  8
Layer_1
 62
1
100
AcDbLine
 10
153.757870
 20
184.927260
 30
0.0
 11
153.999870
 21
185.150820
 31
0.0
  0
LINE
  5
172
100
AcDbEntity
  8
Layer_1
 62
1
100
AcDbLine
 10
153.999870
 20
185.150820
 30
0.0
 11
154.159870
 21
185.225320
 31
0.0
  0
LINE
  5
173
100
AcDbEntity
  8
Layer_1
 62
1
100
AcDbLine
 10
154.159870
 20
185.225320
 30
0.0
 11
154.401870
 21
185.225320
 31
0.0
  0
LINE
  5
174
100
AcDbEntity
  8
Layer_1
 62
1
100
AcDbLine
 10
154.401870
 20
185.225320
 30
0.0
 11
154.561870
 21
185.150820
 31
0.0
  0
LINE
  5
175
100
AcDbEntity
  8
Layer_1
 62
1
100
AcDbLine
 10
154.561870
 20
185.150820
 30
0.0
 11
154.641870
 21
184.927260
 31
0.0
  0
LINE
  5
176
100
AcDbEntity
  8
Layer_1
 62
1
100
AcDbLine
 10
154.641870
 20
184.927260
 30
0.0
 11
154.641870
 21
184.182060
 31
0.0
  0
LINE
  5
177
100
AcDbEntity
  8
Layer_1
 62
1
100
AcDbLine
 10
154.641870
 20
184.927260
 30
0.0
 11
154.882870
 21
185.150820
 31
0.0
  0
LINE
  5
178
100
AcDbEntity
  8
Layer_1
 62
1
100
AcDbLine
 10
154.882870
 20
185.150820
 30
0.0
 11
155.043870
 21
185.225320
 31
0.0
  0
LINE
  5
179
100
AcDbEntity
  8
Layer_1
 62
1
100
AcDbLine
 10
155.043870
 20
185.225320
 30
0.0
 11
155.283870
 21
185.225320
 31
0.0
  0
LINE
  5
17a
100
AcDbEntity
  8
Layer_1
 62
1
100
AcDbLine
 10
155.283870
 20
185.225320
 30
0.0
 11
155.444870
 21
185.150820
 31
0.0
  0
LINE
  5
17b
100
AcDbEntity
  8
Layer_1
 62
1
100
AcDbLine
 10
155.444870
 20
185.150820
 30
0.0
 11
155.524870
 21
184.927260
 31
0.0
  0
LINE
  5
17c
100
AcDbEntity
  8
Layer_1
 62
1
100
AcDbLine
 10
155.524870
 20
184.927260
 30
0.0
 11
155.524870
 21
184.182060
 31
0.0
  0
LINE
  5
17d
100
AcDbEntity
  8
Layer_1
 62
1
100
AcDbLine
 10
157.052870
 20
185.225340
 30
0.0
 11
157.052870
 21
184.182060
 31
0.0
  0
LINE
  5
17e
100
AcDbEntity
  8
Layer_1
 62
1
100
AcDbLine
 10
157.052870
 20
185.001780
 30
0.0
 11
156.890870
 21
185.150820
 31
0.0
  0
LINE
  5
17f
100
AcDbEntity
  8
Layer_1
 62
1
100
AcDbLine
 10
156.890870
 20
185.150820
 30
0.0
 11
156.730870
 21
185.225320
 31
0.0
  0
LINE
  5
180
100
AcDbEntity
  8
Layer_1
 62
1
100
AcDbLine
 10
156.730870
 20
185.225320
 30
0.0
 11
156.489870
 21
185.225320
 31
0.0
  0
LINE
  5
181
100
AcDbEntity
  8
Layer_1
 62
1
100
AcDbLine
 10
156.489870
 20
185.225320
 30
0.0
 11
156.328870
 21
185.150820
 31
0.0
  0
LINE
  5
182
100
AcDbEntity
  8
Layer_1
 62
1
100
AcDbLine
 10
156.328870
 20
185.150820
 30
0.0
 11
156.168870
 21
185.001780
 31
0.0
  0
LINE
  5
183
100
AcDbEntity
  8
Layer_1
 62
1
100
AcDbLine
 10
156.168870
 20
185.001780
 30
0.0
 11
156.088870
 21
184.778220
 31
0.0
  0
LINE
  5
184
100
AcDbEntity
  8
Layer_1
 62
1
100
AcDbLine
 10
156.088870
 20
184.778220
 30
0.0
 11
156.088870
 21
184.629180
 31
0.0
  0
LINE
  5
185
100
AcDbEntity
  8
Layer_1
 62
1
100
AcDbLine
 10
156.088870
 20
184.629180
 30
0.0
 11
156.168870
 21
184.405620
 31
0.0
  0
LINE
  5
186
100
AcDbEntity
  8
Layer_1
 62
1
100
AcDbLine
 10
156.168870
 20
184.405620
 30
0.0
 11
156.328870
 21
184.256580
 31
0.0
  0
LINE
  5
187
100
AcDbEntity
  8
Layer_1
 62
1
100
AcDbLine
 10
156.328870
 20
184.256580
 30
0.0
 11
156.489870
 21
184.181980
 31
0.0
  0
LINE
  5
188
100
AcDbEntity
  8
Layer_1
 62
1
100
AcDbLine
 10
156.489870
 20
184.181980
 30
0.0
 11
156.730870
 21
184.181980
 31
0.0
  0
LINE
  5
189
100
AcDbEntity
  8
Layer_1
 62
1
100
AcDbLine
 10
156.730870
 20
184.181980
 30
0.0
 11
156.890870
 21
184.256580
 31
0.0
  0
LINE
  5
18a
100
AcDbEntity
  8
Layer_1
 62
1
100
AcDbLine
 10
156.890870
 20
184.256580
 30
0.0
 11
157.052870
 21
184.405620
 31
0.0
  0
LINE
  5
18b
100
AcDbEntity
  8
Layer_1
 62
1
100
AcDbLine
 10
157.693870
 20
185.746990
 30
0.0
 11
157.693870
 21
184.182060
 31
0.0
  0
LINE
  5
18c
100
AcDbEntity
  8
Layer_1
 62
1
100
AcDbLine
 10
158.497870
 20
185.225340
 30
0.0
 11
157.693870
 21
184.480140
 31
0.0
  0
LINE
  5
18d
100
AcDbEntity
  8
Layer_1
 62
1
100
AcDbLine
 10
158.015870
 20
184.778220
 30
0.0
 11
158.577870
 21
184.182060
 31
0.0
  0
LINE
  5
18e
100
AcDbEntity
  8
Layer_1
 62
1
100
AcDbLine
 10
158.979870
 20
185.746990
 30
0.0
 11
159.059870
 21
185.672490
 31
0.0
  0
LINE
  5
18f
100
AcDbEntity
  8
Layer_1
 62
1
100
AcDbLine
 10
159.059870
 20
185.672490
 30
0.0
 11
159.139870
 21
185.746990
 31
0.0
  0
LINE
  5
190
100
AcDbEntity
  8
Layer_1
 62
1
100
AcDbLine
 10
159.139870
 20
185.746990
 30
0.0
 11
159.059870
 21
185.821490
 31
0.0
  0
LINE
  5
191
100
AcDbEntity
  8
Layer_1
 62
1
100
AcDbLine
 10
159.059870
 20
185.821490
 30
0.0
 11
158.979870
 21
185.746990
 31
0.0
  0
LINE
  5
192
100
AcDbEntity
  8
Layer_1
 62
1
100
AcDbLine
 10
159.059870
 20
185.225340
 30
0.0
 11
159.059870
 21
184.182060
 31
0.0
  0
LINE
  5
193
100
AcDbEntity
  8
Layer_1
 62
1
100
AcDbLine
 10
159.702870
 20
185.746990
 30
0.0
 11
159.702870
 21
184.182060
 31
0.0
  0
LINE
  5
194
100
AcDbEntity
  8
Layer_1
 62
1
100
AcDbLine
 10
161.228870
 20
185.225340
 30
0.0
 11
161.228870
 21
184.182060
 31
0.0
  0
LINE
  5
195
100
AcDbEntity
  8
Layer_1
 62
1
100
AcDbLine
 10
161.228870
 20
185.001780
 30
0.0
 11
161.068870
 21
185.150820
 31
0.0
  0
LINE
  5
196
100
AcDbEntity
  8
Layer_1
 62
1
100
AcDbLine
 10
161.068870
 20
185.150820
 30
0.0
 11
160.907870
 21
185.225320
 31
0.0
  0
LINE
  5
197
100
AcDbEntity
  8
Layer_1
 62
1
100
AcDbLine
 10
160.907870
 20
185.225320
 30
0.0
 11
160.666870
 21
185.225320
 31
0.0
  0
LINE
  5
198
100
AcDbEntity
  8
Layer_1
 62
1
100
AcDbLine
 10
160.666870
 20
185.225320
 30
0.0
 11
160.506870
 21
185.150820
 31
0.0
  0
LINE
  5
199
100
AcDbEntity
  8
Layer_1
 62
1
100
AcDbLine
 10
160.506870
 20
185.150820
 30
0.0
 11
160.344870
 21
185.001780
 31
0.0
  0
LINE
  5
19a
100
AcDbEntity
  8
Layer_1
 62
1
100
AcDbLine
 10
160.344870
 20
185.001780
 30
0.0
 11
160.264870
 21
184.778220
 31
0.0
  0
LINE
  5
19b
100
AcDbEntity
  8
Layer_1
 62
1
100
AcDbLine
 10
160.264870
 20
184.778220
 30
0.0
 11
160.264870
 21
184.629180
 31
0.0
  0
LINE
  5
19c
100
AcDbEntity
  8
Layer_1
 62
1
100
AcDbLine
 10
160.264870
 20
184.629180
 30
0.0
 11
160.344870
 21
184.405620
 31
0.0
  0
LINE
  5
19d
100
AcDbEntity
  8
Layer_1
 62
1
100
AcDbLine
 10
160.344870
 20
184.405620
 30
0.0
 11
160.506870
 21
184.256580
 31
0.0
  0
LINE
  5
19e
100
AcDbEntity
  8
Layer_1
 62
1
100
AcDbLine
 10
160.506870
 20
184.256580
 30
0.0
 11
160.666870
 21
184.181980
 31
0.0
  0
LINE
  5
19f
100
AcDbEntity
  8
Layer_1
 62
1
100
AcDbLine
 10
160.666870
 20
184.181980
 30
0.0
 11
160.907870
 21
184.181980
 31
0.0
  0
LINE
  5
1a0
100
AcDbEntity
  8
Layer_1
 62
1
100
AcDbLine
 10
160.907870
 20
184.181980
 30
0.0
 11
161.068870
 21
184.256580
 31
0.0
  0
LINE
  5
1a1
100
AcDbEntity
  8
Layer_1
 62
1
100
AcDbLine
 10
161.068870
 20
184.256580
 30
0.0
 11
161.228870
 21
184.405620
 31
0.0
  0
LINE
  5
1a2
100
AcDbEntity
  8
Layer_1
 62
1
100
AcDbLine
 10
161.870870
 20
185.746990
 30
0.0
 11
161.870870
 21
184.182060
 31
0.0
  0
LINE
  5
1a3
100
AcDbEntity
  8
Layer_1
 62
1
100
AcDbLine
 10
161.870870
 20
185.001780
 30
0.0
 11
162.030870
 21
185.150820
 31
0.0
  0
LINE
  5
1a4
100
AcDbEntity
  8
Layer_1
 62
1
100
AcDbLine
 10
162.030870
 20
185.150820
 30
0.0
 11
162.192870
 21
185.225320
 31
0.0
  0
LINE
  5
1a5
100
AcDbEntity
  8
Layer_1
 62
1
100
AcDbLine
 10
162.192870
 20
185.225320
 30
0.0
 11
162.432870
 21
185.225320
 31
0.0
  0
LINE
  5
1a6
100
AcDbEntity
  8
Layer_1
 62
1
100
AcDbLine
 10
162.432870
 20
185.225320
 30
0.0
 11
162.593870
 21
185.150820
 31
0.0
  0
LINE
  5
1a7
100
AcDbEntity
  8
Layer_1
 62
1
100
AcDbLine
 10
162.593870
 20
185.150820
 30
0.0
 11
162.754870
 21
185.001780
 31
0.0
  0
LINE
  5
1a8
100
AcDbEntity
  8
Layer_1
 62
1
100
AcDbLine
 10
162.754870
 20
185.001780
 30
0.0
 11
162.834870
 21
184.778220
 31
0.0
  0
LINE
  5
1a9
100
AcDbEntity
  8
Layer_1
 62
1
100
AcDbLine
 10
162.834870
 20
184.778220
 30
0.0
 11
162.834870
 21
184.629180
 31
0.0
  0
LINE
  5
1aa
100
AcDbEntity
  8
Layer_1
 62
1
100
AcDbLine
 10
162.834870
 20
184.629180
 30
0.0
 11
162.754870
 21
184.405620
 31
0.0
  0
LINE
  5
1ab
100
AcDbEntity
  8
Layer_1
 62
1
100
AcDbLine
 10
162.754870
 20
184.405620
 30
0.0
 11
162.593870
 21
184.256580
 31
0.0
  0
LINE
  5
1ac
100
AcDbEntity
  8
Layer_1
 62
1
100
AcDbLine
 10
162.593870
 20
184.256580
 30
0.0
 11
162.432870
 21
184.181980
 31
0.0
  0
LINE
  5
1ad
100
AcDbEntity
  8
Layer_1
 62
1
100
AcDbLine
 10
162.432870
 20
184.181980
 30
0.0
 11
162.192870
 21
184.181980
 31
0.0
  0
LINE
  5
1ae
100
AcDbEntity
  8
Layer_1
 62
1
100
AcDbLine
 10
162.192870
 20
184.181980
 30
0.0
 11
162.030870
 21
184.256580
 31
0.0
  0
LINE
  5
1af
100
AcDbEntity
  8
Layer_1
 62
1
100
AcDbLine
 10
162.030870
 20
184.256580
 30
0.0
 11
161.870870
 21
184.405620
 31
0.0
  0
LINE
  5
1b0
100
AcDbEntity
  8
Layer_1
 62
1
100
AcDbLine
 10
163.396870
 20
184.554660
 30
0.0
 11
163.316870
 21
184.480160
 31
0.0
  0
LINE
  5
1b1
100
AcDbEntity
  8
Layer_1
 62
1
100
AcDbLine
 10
163.316870
 20
184.480160
 30
0.0
 11
163.396870
 21
184.405660
 31
0.0
  0
LINE
  5
1b2
100
AcDbEntity
  8
Layer_1
 62
1
100
AcDbLine
 10
163.396870
 20
184.405660
 30
0.0
 11
163.476870
 21
184.480160
 31
0.0
  0
LINE
  5
1b3
100
AcDbEntity
  8
Layer_1
 62
1
100
AcDbLine
 10
163.476870
 20
184.480160
 30
0.0
 11
163.396870
 21
184.554660
 31
0.0
  0
LINE
  5
1b4
100
AcDbEntity
  8
Layer_1
 62
1
100
AcDbLine
 10
164.361870
 20
185.225340
 30
0.0
 11
164.200870
 21
185.150840
 31
0.0
  0
LINE
  5
1b5
100
AcDbEntity
  8
Layer_1
 62
1
100
AcDbLine
 10
164.200870
 20
185.150840
 30
0.0
 11
164.039870
 21
185.001800
 31
0.0
  0
LINE
  5
1b6
100
AcDbEntity
  8
Layer_1
 62
1
100
AcDbLine
 10
164.039870
 20
185.001800
 30
0.0
 11
163.959870
 21
184.778240
 31
0.0
  0
LINE
  5
1b7
100
AcDbEntity
  8
Layer_1
 62
1
100
AcDbLine
 10
163.959870
 20
184.778240
 30
0.0
 11
163.959870
 21
184.629200
 31
0.0
  0
LINE
  5
1b8
100
AcDbEntity
  8
Layer_1
 62
1
100
AcDbLine
 10
163.959870
 20
184.629200
 30
0.0
 11
164.039870
 21
184.405640
 31
0.0
  0
LINE
  5
1b9
100
AcDbEntity
  8
Layer_1
 62
1
100
AcDbLine
 10
164.039870
 20
184.405640
 30
0.0
 11
164.200870
 21
184.256590
 31
0.0
  0
LINE
  5
1ba
100
AcDbEntity
  8
Layer_1
 62
1
100
AcDbLine
 10
164.200870
 20
184.256590
 30
0.0
 11
164.361870
 21
184.181990
 31
0.0
  0
LINE
  5
1bb
100
AcDbEntity
  8
Layer_1
 62
1
100
AcDbLine
 10
164.361870
 20
184.181990
 30
0.0
 11
164.601870
 21
184.181990
 31
0.0
  0
LINE
  5
1bc
100
AcDbEntity
  8
Layer_1
 62
1
100
AcDbLine
 10
164.601870
 20
184.181990
 30
0.0
 11
164.763870
 21
184.256590
 31
0.0
  0
LINE
  5
1bd
100
AcDbEntity
  8
Layer_1
 62
1
100
AcDbLine
 10
164.763870
 20
184.256590
 30
0.0
 11
164.923870
 21
184.405640
 31
0.0
  0
LINE
  5
1be
100
AcDbEntity
  8
Layer_1
 62
1
100
AcDbLine
 10
164.923870
 20
184.405640
 30
0.0
 11
165.003870
 21
184.629200
 31
0.0
  0
LINE
  5
1bf
100
AcDbEntity
  8
Layer_1
 62
1
100
AcDbLine
 10
165.003870
 20
184.629200
 30
0.0
 11
165.003870
 21
184.778240
 31
0.0
  0
LINE
  5
1c0
100
AcDbEntity
  8
Layer_1
 62
1
100
AcDbLine
 10
165.003870
 20
184.778240
 30
0.0
 11
164.923870
 21
185.001800
 31
0.0
  0
LINE
  5
1c1
100
AcDbEntity
  8
Layer_1
 62
1
100
AcDbLine
 10
164.923870
 20
185.001800
 30
0.0
 11
164.763870
 21
185.150840
 31
0.0
  0
LINE
  5
1c2
100
AcDbEntity
  8
Layer_1
 62
1
100
AcDbLine
 10
164.763870
 20
185.150840
 30
0.0
 11
164.601870
 21
185.225340
 31
0.0
  0
LINE
  5
1c3
100
AcDbEntity
  8
Layer_1
 62
1
100
AcDbLine
 10
164.601870
 20
185.225340
 30
0.0
 11
164.361870
 21
185.225340
 31
0.0
  0
LINE
  5
1c4
100
AcDbEntity
  8
Layer_1
 62
1
100
AcDbLine
 10
165.565870
 20
185.225340
 30
0.0
 11
165.565870
 21
184.182060
 31
0.0
  0
LINE
  5
1c5
100
AcDbEntity
  8
Layer_1
 62
1
100
AcDbLine
 10
165.565870
 20
184.778220
 30
0.0
 11
165.645870
 21
185.001780
 31
0.0
  0
LINE
  5
1c6
100
AcDbEntity
  8
Layer_1
 62
1
100
AcDbLine
 10
165.645870
 20
185.001780
 30
0.0
 11
165.806870
 21
185.150820
 31
0.0
  0
LINE
  5
1c7
100
AcDbEntity
  8
Layer_1
 62
1
100
AcDbLine
 10
165.806870
 20
185.150820
 30
0.0
 11
165.967870
 21
185.225320
 31
0.0
  0
LINE
  5
1c8
100
AcDbEntity
  8
Layer_1
 62
1
100
AcDbLine
 10
165.967870
 20
185.225320
 30
0.0
 11
166.208870
 21
185.225320
 31
0.0
  0
LINE
  5
1c9
100
AcDbEntity
  8
Layer_1
 62
1
100
AcDbLine
 10
167.494070
 20
185.225340
 30
0.0
 11
167.494070
 21
184.033020
 31
0.0
  0
LINE
  5
1ca
100
AcDbEntity
  8
Layer_1
 62
1
100
AcDbLine
 10
167.494070
 20
184.033020
 30
0.0
 11
167.414070
 21
183.809450
 31
0.0
  0
LINE
  5
1cb
100
AcDbEntity
  8
Layer_1
 62
1
100
AcDbLine
 10
167.414070
 20
183.809450
 30
0.0
 11
167.334070
 21
183.735050
 31
0.0
  0
LINE
  5
1cc
100
AcDbEntity
  8
Layer_1
 62
1
100
AcDbLine
 10
167.334070
 20
183.735050
 30
0.0
 11
167.173370
 21
183.660550
 31
0.0
  0
LINE
  5
1cd
100
AcDbEntity
  8
Layer_1
 62
1
100
AcDbLine
 10
167.173370
 20
183.660550
 30
0.0
 11
166.931870
 21
183.660550
 31
0.0
  0
LINE
  5
1ce
100
AcDbEntity
  8
Layer_1
 62
1
100
AcDbLine
 10
166.931870
 20
183.660550
 30
0.0
 11
166.771870
 21
183.735050
 31
0.0
  0
LINE
  5
1cf
100
AcDbEntity
  8
Layer_1
 62
1
100
AcDbLine
 10
167.494670
 20
185.001900
 30
0.0
 11
167.334070
 21
185.150940
 31
0.0
  0
LINE
  5
1d0
100
AcDbEntity
  8
Layer_1
 62
1
100
AcDbLine
 10
167.334070
 20
185.150940
 30
0.0
 11
167.173370
 21
185.225440
 31
0.0
  0
LINE
  5
1d1
100
AcDbEntity
  8
Layer_1
 62
1
100
AcDbLine
 10
167.173370
 20
185.225440
 30
0.0
 11
166.931870
 21
185.225440
 31
0.0
  0
LINE
  5
1d2
100
AcDbEntity
  8
Layer_1
 62
1
100
AcDbLine
 10
166.931870
 20
185.225440
 30
0.0
 11
166.771870
 21
185.150940
 31
0.0
  0
LINE
  5
1d3
100
AcDbEntity
  8
Layer_1
 62
1
100
AcDbLine
 10
166.771870
 20
185.150940
 30
0.0
 11
166.610870
 21
185.001900
 31
0.0
  0
LINE
  5
1d4
100
AcDbEntity
  8
Layer_1
 62
1
100
AcDbLine
 10
166.610870
 20
185.001900
 30
0.0
 11
166.530870
 21
184.778340
 31
0.0
  0
LINE
  5
1d5
100
AcDbEntity
  8
Layer_1
 62
1
100
AcDbLine
 10
166.530870
 20
184.778340
 30
0.0
 11
166.530870
 21
184.629290
 31
0.0
  0
LINE
  5
1d6
100
AcDbEntity
  8
Layer_1
 62
1
100
AcDbLine
 10
166.530870
 20
184.629290
 30
0.0
 11
166.610870
 21
184.405730
 31
0.0
  0
LINE
  5
1d7
100
AcDbEntity
  8
Layer_1
 62
1
100
AcDbLine
 10
166.610870
 20
184.405730
 30
0.0
 11
166.771870
 21
184.256690
 31
0.0
  0
LINE
  5
1d8
100
AcDbEntity
  8
Layer_1
 62
1
100
AcDbLine
 10
166.771870
 20
184.256690
 30
0.0
 11
166.931870
 21
184.182090
 31
0.0
  0
LINE
  5
1d9
100
AcDbEntity
  8
Layer_1
 62
1
100
AcDbLine
 10
166.931870
 20
184.182090
 30
0.0
 11
167.173370
 21
184.182090
 31
0.0
  0
LINE
  5
1da
100
AcDbEntity
  8
Layer_1
 62
1
100
AcDbLine
 10
167.173370
 20
184.182090
 30
0.0
 11
167.334070
 21
184.256690
 31
0.0
  0
LINE
  5
1db
100
AcDbEntity
  8
Layer_1
 62
1
100
AcDbLine
 10
167.334070
 20
184.256690
 30
0.0
 11
167.494670
 21
184.405730
 31
0.0
  0
LINE
  5
1dc
100
AcDbEntity
  8
Layer_1
 62
7
100
AcDbLine
 10
16.425546
 20
201.896702
 30
0.0
 11
16.425546
 21
196.340452
 31
0.0
  0
LINE
  5
1dd
100
AcDbEntity
  8
Layer_1
 62
7
100
AcDbLine
 10
16.425546
 20
201.896702
 30
0.0
 11
18.542213
 21
196.340452
 31
0.0
  0
LINE
  5
1de
100
AcDbEntity
  8
Layer_1
 62
7
100
AcDbLine
 10
20.658880
 20
201.896702
 30
0.0
 11
18.542213
 21
196.340452
 31
0.0
  0
LINE
  5
1df
100
AcDbEntity
  8
Layer_1
 62
7
100
AcDbLine
 10
20.658880
 20
201.896702
 30
0.0
 11
20.658880
 21
196.340452
 31
0.0
  0
LINE
  5
1e0
100
AcDbEntity
  8
Layer_1
 62
7
100
AcDbLine
 10
22.510963
 20
198.457119
 30
0.0
 11
25.685963
 21
198.457119
 31
0.0
  0
LINE
  5
1e1
100
AcDbEntity
  8
Layer_1
 62
7
100
AcDbLine
 10
25.685963
 20
198.457119
 30
0.0
 11
25.685963
 21
198.986285
 31
0.0
  0
LINE
  5
1e2
100
AcDbEntity
  8
Layer_1
 62
7
100
AcDbLine
 10
25.685963
 20
198.986285
 30
0.0
 11
25.421380
 21
199.515452
 31
0.0
  0
LINE
  5
1e3
100
AcDbEntity
  8
Layer_1
 62
7
100
AcDbLine
 10
25.421380
 20
199.515452
 30
0.0
 11
25.156796
 21
199.780035
 31
0.0
  0
LINE
  5
1e4
100
AcDbEntity
  8
Layer_1
 62
7
100
AcDbLine
 10
25.156796
 20
199.780035
 30
0.0
 11
24.627630
 21
200.044619
 31
0.0
  0
LINE
  5
1e5
100
AcDbEntity
  8
Layer_1
 62
7
100
AcDbLine
 10
24.627630
 20
200.044619
 30
0.0
 11
23.833880
 21
200.044619
 31
0.0
  0
LINE
  5
1e6
100
AcDbEntity
  8
Layer_1
 62
7
100
AcDbLine
 10
23.833880
 20
200.044619
 30
0.0
 11
23.304713
 21
199.780035
 31
0.0
  0
LINE
  5
1e7
100
AcDbEntity
  8
Layer_1
 62
7
100
AcDbLine
 10
23.304713
 20
199.780035
 30
0.0
 11
22.775546
 21
199.250869
 31
0.0
  0
LINE
  5
1e8
100
AcDbEntity
  8
Layer_1
 62
7
100
AcDbLine
 10
22.775546
 20
199.250869
 30
0.0
 11
22.510963
 21
198.457119
 31
0.0
  0
LINE
  5
1e9
100
AcDbEntity
  8
Layer_1
 62
7
100
AcDbLine
 10
22.510963
 20
198.457119
 30
0.0
 11
22.510963
 21
197.927952
 31
0.0
  0
LINE
  5
1ea
100
AcDbEntity
  8
Layer_1
 62
7
100
AcDbLine
 10
22.510963
 20
197.927952
 30
0.0
 11
22.775546
 21
197.134202
 31
0.0
  0
LINE
  5
1eb
100
AcDbEntity
  8
Layer_1
 62
7
100
AcDbLine
 10
22.775546
 20
197.134202
 30
0.0
 11
23.304713
 21
196.605035
 31
0.0
  0
LINE
  5
1ec
100
AcDbEntity
  8
Layer_1
 62
7
100
AcDbLine
 10
23.304713
 20
196.605035
 30
0.0
 11
23.833880
 21
196.340452
 31
0.0
  0
LINE
  5
1ed
100
AcDbEntity
  8
Layer_1
 62
7
100
AcDbLine
 10
23.833880
 20
196.340452
 30
0.0
 11
24.627630
 21
196.340452
 31
0.0
  0
LINE
  5
1ee
100
AcDbEntity
  8
Layer_1
 62
7
100
AcDbLine
 10
24.627630
 20
196.340452
 30
0.0
 11
25.156796
 21
196.605035
 31
0.0
  0
LINE
  5
1ef
100
AcDbEntity
  8
Layer_1
 62
7
100
AcDbLine
 10
25.156796
 20
196.605035
 30
0.0
 11
25.685963
 21
197.134202
 31
0.0
  0
LINE
  5
1f0
100
AcDbEntity
  8
Layer_1
 62
7
100
AcDbLine
 10
27.538046
 20
200.044619
 30
0.0
 11
27.538046
 21
196.340452
 31
0.0
  0
LINE
  5
1f1
100
AcDbEntity
  8
Layer_1
 62
7
100
AcDbLine
 10
27.538046
 20
198.457119
 30
0.0
 11
27.802630
 21
199.250869
 31
0.0
  0
LINE
  5
1f2
100
AcDbEntity
  8
Layer_1
 62
7
100
AcDbLine
 10
27.802630
 20
199.250869
 30
0.0
 11
28.331796
 21
199.780035
 31
0.0
  0
LINE
  5
1f3
100
AcDbEntity
  8
Layer_1
 62
7
100
AcDbLine
 10
28.331796
 20
199.780035
 30
0.0
 11
28.860963
 21
200.044619
 31
0.0
  0
LINE
  5
1f4
100
AcDbEntity
  8
Layer_1
 62
7
100
AcDbLine
 10
28.860963
 20
200.044619
 30
0.0
 11
29.654713
 21
200.044619
 31
0.0
  0
LINE
  5
1f5
100
AcDbEntity
  8
Layer_1
 62
7
100
AcDbLine
 10
33.888046
 20
199.250869
 30
0.0
 11
33.358879
 21
199.780035
 31
0.0
  0
LINE
  5
1f6
100
AcDbEntity
  8
Layer_1
 62
7
100
AcDbLine
 10
33.358879
 20
199.780035
 30
0.0
 11
32.829713
 21
200.044619
 31
0.0
  0
LINE
  5
1f7
100
AcDbEntity
  8
Layer_1
 62
7
100
AcDbLine
 10
32.829713
 20
200.044619
 30
0.0
 11
32.035963
 21
200.044619
 31
0.0
  0
LINE
  5
1f8
100
AcDbEntity
  8
Layer_1
 62
7
100
AcDbLine
 10
32.035963
 20
200.044619
 30
0.0
 11
31.506796
 21
199.780035
 31
0.0
  0
LINE
  5
1f9
100
AcDbEntity
  8
Layer_1
 62
7
100
AcDbLine
 10
31.506796
 20
199.780035
 30
0.0
 11
30.977629
 21
199.250869
 31
0.0
  0
LINE
  5
1fa
100
AcDbEntity
  8
Layer_1
 62
7
100
AcDbLine
 10
30.977629
 20
199.250869
 30
0.0
 11
30.713046
 21
198.457119
 31
0.0
  0
LINE
  5
1fb
100
AcDbEntity
  8
Layer_1
 62
7
100
AcDbLine
 10
30.713046
 20
198.457119
 30
0.0
 11
30.713046
 21
197.927952
 31
0.0
  0
LINE
  5
1fc
100
AcDbEntity
  8
Layer_1
 62
7
100
AcDbLine
 10
30.713046
 20
197.927952
 30
0.0
 11
30.977629
 21
197.134202
 31
0.0
  0
LINE
  5
1fd
100
AcDbEntity
  8
Layer_1
 62
7
100
AcDbLine
 10
30.977629
 20
197.134202
 30
0.0
 11
31.506796
 21
196.605035
 31
0.0
  0
LINE
  5
1fe
100
AcDbEntity
  8
Layer_1
 62
7
100
AcDbLine
 10
31.506796
 20
196.605035
 30
0.0
 11
32.035963
 21
196.340452
 31
0.0
  0
LINE
  5
1ff
100
AcDbEntity
  8
Layer_1
 62
7
100
AcDbLine
 10
32.035963
 20
196.340452
 30
0.0
 11
32.829713
 21
196.340452
 31
0.0
  0
LINE
  5
200
100
AcDbEntity
  8
Layer_1
 62
7
100
AcDbLine
 10
32.829713
 20
196.340452
 30
0.0
 11
33.358879
 21
196.605035
 31
0.0
  0
LINE
  5
201
100
AcDbEntity
  8
Layer_1
 62
7
100
AcDbLine
 10
33.358879
 20
196.605035
 30
0.0
 11
33.888046
 21
197.134202
 31
0.0
  0
LINE
  5
202
100
AcDbEntity
  8
Layer_1
 62
7
100
AcDbLine
 10
35.475546
 20
201.896702
 30
0.0
 11
35.740129
 21
201.632119
 31
0.0
  0
LINE
  5
203
100
AcDbEntity
  8
Layer_1
 62
7
100
AcDbLine
 10
35.740129
 20
201.632119
 30
0.0
 11
36.004713
 21
201.896702
 31
0.0
  0
LINE
  5
204
100
AcDbEntity
  8
Layer_1
 62
7
100
AcDbLine
 10
36.004713
 20
201.896702
 30
0.0
 11
35.740129
 21
202.161285
 31
0.0
  0
LINE
  5
205
100
AcDbEntity
  8
Layer_1
 62
7
100
AcDbLine
 10
35.740129
 20
202.161285
 30
0.0
 11
35.475546
 21
201.896702
 31
0.0
  0
LINE
  5
206
100
AcDbEntity
  8
Layer_1
 62
7
100
AcDbLine
 10
35.740129
 20
200.044619
 30
0.0
 11
35.740129
 21
196.340452
 31
0.0
  0
LINE
  5
207
100
AcDbEntity
  8
Layer_1
 62
7
100
AcDbLine
 10
42.090129
 20
201.896702
 30
0.0
 11
42.090129
 21
196.340452
 31
0.0
  0
LINE
  5
208
100
AcDbEntity
  8
Layer_1
 62
7
100
AcDbLine
 10
45.794296
 20
201.896702
 30
0.0
 11
42.090129
 21
198.192535
 31
0.0
  0
LINE
  5
209
100
AcDbEntity
  8
Layer_1
 62
7
100
AcDbLine
 10
43.413046
 20
199.515452
 30
0.0
 11
45.794296
 21
196.340452
 31
0.0
  0
LINE
  5
20a
100
AcDbEntity
  8
Layer_1
 62
7
100
AcDbLine
 10
47.646379
 20
200.044619
 30
0.0
 11
47.646379
 21
196.340452
 31
0.0
  0
LINE
  5
20b
100
AcDbEntity
  8
Layer_1
 62
7
100
AcDbLine
 10
47.646379
 20
198.457119
 30
0.0
 11
47.910963
 21
199.250869
 31
0.0
  0
LINE
  5
20c
100
AcDbEntity
  8
Layer_1
 62
7
100
AcDbLine
 10
47.910963
 20
199.250869
 30
0.0
 11
48.440129
 21
199.780035
 31
0.0
  0
LINE
  5
20d
100
AcDbEntity
  8
Layer_1
 62
7
100
AcDbLine
 10
48.440129
 20
199.780035
 30
0.0
 11
48.969296
 21
200.044619
 31
0.0
  0
LINE
  5
20e
100
AcDbEntity
  8
Layer_1
 62
7
100
AcDbLine
 10
48.969296
 20
200.044619
 30
0.0
 11
49.763046
 21
200.044619
 31
0.0
  0
LINE
  5
20f
100
AcDbEntity
  8
Layer_1
 62
7
100
AcDbLine
 10
50.821379
 20
201.896702
 30
0.0
 11
51.085963
 21
201.632119
 31
0.0
  0
LINE
  5
210
100
AcDbEntity
  8
Layer_1
 62
7
100
AcDbLine
 10
51.085963
 20
201.632119
 30
0.0
 11
51.350546
 21
201.896702
 31
0.0
  0
LINE
  5
211
100
AcDbEntity
  8
Layer_1
 62
7
100
AcDbLine
 10
51.350546
 20
201.896702
 30
0.0
 11
51.085963
 21
202.161285
 31
0.0
  0
LINE
  5
212
100
AcDbEntity
  8
Layer_1
 62
7
100
AcDbLine
 10
51.085963
 20
202.161285
 30
0.0
 11
50.821379
 21
201.896702
 31
0.0
  0
LINE
  5
213
100
AcDbEntity
  8
Layer_1
 62
7
100
AcDbLine
 10
51.085963
 20
200.044619
 30
0.0
 11
51.085963
 21
196.340452
 31
0.0
  0
LINE
  5
214
100
AcDbEntity
  8
Layer_1
 62
7
100
AcDbLine
 10
55.848462
 20
199.250869
 30
0.0
 11
55.583879
 21
199.780035
 31
0.0
  0
LINE
  5
215
100
AcDbEntity
  8
Layer_1
 62
7
100
AcDbLine
 10
55.583879
 20
199.780035
 30
0.0
 11
54.790129
 21
200.044619
 31
0.0
  0
LINE
  5
216
100
AcDbEntity
  8
Layer_1
 62
7
100
AcDbLine
 10
54.790129
 20
200.044619
 30
0.0
 11
53.996379
 21
200.044619
 31
0.0
  0
LINE
  5
217
100
AcDbEntity
  8
Layer_1
 62
7
100
AcDbLine
 10
53.996379
 20
200.044619
 30
0.0
 11
53.202629
 21
199.780035
 31
0.0
  0
LINE
  5
218
100
AcDbEntity
  8
Layer_1
 62
7
100
AcDbLine
 10
53.202629
 20
199.780035
 30
0.0
 11
52.938046
 21
199.250869
 31
0.0
  0
LINE
  5
219
100
AcDbEntity
  8
Layer_1
 62
7
100
AcDbLine
 10
52.938046
 20
199.250869
 30
0.0
 11
53.202629
 21
198.721702
 31
0.0
  0
LINE
  5
21a
100
AcDbEntity
  8
Layer_1
 62
7
100
AcDbLine
 10
53.202629
 20
198.721702
 30
0.0
 11
53.731796
 21
198.457119
 31
0.0
  0
LINE
  5
21b
100
AcDbEntity
  8
Layer_1
 62
7
100
AcDbLine
 10
53.731796
 20
198.457119
 30
0.0
 11
55.054713
 21
198.192535
 31
0.0
  0
LINE
  5
21c
100
AcDbEntity
  8
Layer_1
 62
7
100
AcDbLine
 10
55.054713
 20
198.192535
 30
0.0
 11
55.583879
 21
197.927952
 31
0.0
  0
LINE
  5
21d
100
AcDbEntity
  8
Layer_1
 62
7
100
AcDbLine
 10
55.583879
 20
197.927952
 30
0.0
 11
55.848462
 21
197.398785
 31
0.0
  0
LINE
  5
21e
100
AcDbEntity
  8
Layer_1
 62
7
100
AcDbLine
 10
55.848462
 20
197.398785
 30
0.0
 11
55.848462
 21
197.134202
 31
0.0
  0
LINE
  5
21f
100
AcDbEntity
  8
Layer_1
 62
7
100
AcDbLine
 10
55.848462
 20
197.134202
 30
0.0
 11
55.583879
 21
196.605035
 31
0.0
  0
LINE
  5
220
100
AcDbEntity
  8
Layer_1
 62
7
100
AcDbLine
 10
55.583879
 20
196.605035
 30
0.0
 11
54.790129
 21
196.340452
 31
0.0
  0
LINE
  5
221
100
AcDbEntity
  8
Layer_1
 62
7
100
AcDbLine
 10
54.790129
 20
196.340452
 30
0.0
 11
53.996379
 21
196.340452
 31
0.0
  0
LINE
  5
222
100
AcDbEntity
  8
Layer_1
 62
7
100
AcDbLine
 10
53.996379
 20
196.340452
 30
0.0
 11
53.202629
 21
196.605035
 31
0.0
  0
LINE
  5
223
100
AcDbEntity
  8
Layer_1
 62
7
100
AcDbLine
 10
53.202629
 20
196.605035
 30
0.0
 11
52.938046
 21
197.134202
 31
0.0
  0
LINE
  5
224
100
AcDbEntity
  8
Layer_1
 62
7
100
AcDbLine
 10
61.933879
 20
200.044619
 30
0.0
 11
61.933879
 21
194.488369
 31
0.0
  0
LINE
  5
225
100
AcDbEntity
  8
Layer_1
 62
7
100
AcDbLine
 10
61.933879
 20
199.250869
 30
0.0
 11
62.463046
 21
199.780035
 31
0.0
  0
LINE
  5
226
100
AcDbEntity
  8
Layer_1
 62
7
100
AcDbLine
 10
62.463046
 20
199.780035
 30
0.0
 11
62.992212
 21
200.044619
 31
0.0
  0
LINE
  5
227
100
AcDbEntity
  8
Layer_1
 62
7
100
AcDbLine
 10
62.992212
 20
200.044619
 30
0.0
 11
63.785962
 21
200.044619
 31
0.0
  0
LINE
  5
228
100
AcDbEntity
  8
Layer_1
 62
7
100
AcDbLine
 10
63.785962
 20
200.044619
 30
0.0
 11
64.315129
 21
199.780035
 31
0.0
  0
LINE
  5
229
100
AcDbEntity
  8
Layer_1
 62
7
100
AcDbLine
 10
64.315129
 20
199.780035
 30
0.0
 11
64.844296
 21
199.250869
 31
0.0
  0
LINE
  5
22a
100
AcDbEntity
  8
Layer_1
 62
7
100
AcDbLine
 10
64.844296
 20
199.250869
 30
0.0
 11
65.108879
 21
198.457119
 31
0.0
  0
LINE
  5
22b
100
AcDbEntity
  8
Layer_1
 62
7
100
AcDbLine
 10
65.108879
 20
198.457119
 30
0.0
 11
65.108879
 21
197.927952
 31
0.0
  0
LINE
  5
22c
100
AcDbEntity
  8
Layer_1
 62
7
100
AcDbLine
 10
65.108879
 20
197.927952
 30
0.0
 11
64.844296
 21
197.134202
 31
0.0
  0
LINE
  5
22d
100
AcDbEntity
  8
Layer_1
 62
7
100
AcDbLine
 10
64.844296
 20
197.134202
 30
0.0
 11
64.315129
 21
196.605035
 31
0.0
  0
LINE
  5
22e
100
AcDbEntity
  8
Layer_1
 62
7
100
AcDbLine
 10
64.315129
 20
196.605035
 30
0.0
 11
63.785962
 21
196.340452
 31
0.0
  0
LINE
  5
22f
100
AcDbEntity
  8
Layer_1
 62
7
100
AcDbLine
 10
63.785962
 20
196.340452
 30
0.0
 11
62.992212
 21
196.340452
 31
0.0
  0
LINE
  5
230
100
AcDbEntity
  8
Layer_1
 62
7
100
AcDbLine
 10
62.992212
 20
196.340452
 30
0.0
 11
62.463046
 21
196.605035
 31
0.0
  0
LINE
  5
231
100
AcDbEntity
  8
Layer_1
 62
7
100
AcDbLine
 10
62.463046
 20
196.605035
 30
0.0
 11
61.933879
 21
197.134202
 31
0.0
  0
LINE
  5
232
100
AcDbEntity
  8
Layer_1
 62
7
100
AcDbLine
 10
68.019296
 20
200.044619
 30
0.0
 11
67.490129
 21
199.780035
 31
0.0
  0
LINE
  5
233
100
AcDbEntity
  8
Layer_1
 62
7
100
AcDbLine
 10
67.490129
 20
199.780035
 30
0.0
 11
66.960962
 21
199.250869
 31
0.0
  0
LINE
  5
234
100
AcDbEntity
  8
Layer_1
 62
7
100
AcDbLine
 10
66.960962
 20
199.250869
 30
0.0
 11
66.696379
 21
198.457119
 31
0.0
  0
LINE
  5
235
100
AcDbEntity
  8
Layer_1
 62
7
100
AcDbLine
 10
66.696379
 20
198.457119
 30
0.0
 11
66.696379
 21
197.927952
 31
0.0
  0
LINE
  5
236
100
AcDbEntity
  8
Layer_1
 62
7
100
AcDbLine
 10
66.696379
 20
197.927952
 30
0.0
 11
66.960962
 21
197.134202
 31
0.0
  0
LINE
  5
237
100
AcDbEntity
  8
Layer_1
 62
7
100
AcDbLine
 10
66.960962
 20
197.134202
 30
0.0
 11
67.490129
 21
196.605035
 31
0.0
  0
LINE
  5
238
100
AcDbEntity
  8
Layer_1
 62
7
100
AcDbLine
 10
67.490129
 20
196.605035
 30
0.0
 11
68.019296
 21
196.340452
 31
0.0
  0
LINE
  5
239
100
AcDbEntity
  8
Layer_1
 62
7
100
AcDbLine
 10
68.019296
 20
196.340452
 30
0.0
 11
68.813046
 21
196.340452
 31
0.0
  0
LINE
  5
23a
100
AcDbEntity
  8
Layer_1
 62
7
100
AcDbLine
 10
68.813046
 20
196.340452
 30
0.0
 11
69.342212
 21
196.605035
 31
0.0
  0
LINE
  5
23b
100
AcDbEntity
  8
Layer_1
 62
7
100
AcDbLine
 10
69.342212
 20
196.605035
 30
0.0
 11
69.871379
 21
197.134202
 31
0.0
  0
LINE
  5
23c
100
AcDbEntity
  8
Layer_1
 62
7
100
AcDbLine
 10
69.871379
 20
197.134202
 30
0.0
 11
70.135962
 21
197.927952
 31
0.0
  0
LINE
  5
23d
100
AcDbEntity
  8
Layer_1
 62
7
100
AcDbLine
 10
70.135962
 20
197.927952
 30
0.0
 11
70.135962
 21
198.457119
 31
0.0
  0
LINE
  5
23e
100
AcDbEntity
  8
Layer_1
 62
7
100
AcDbLine
 10
70.135962
 20
198.457119
 30
0.0
 11
69.871379
 21
199.250869
 31
0.0
  0
LINE
  5
23f
100
AcDbEntity
  8
Layer_1
 62
7
100
AcDbLine
 10
69.871379
 20
199.250869
 30
0.0
 11
69.342212
 21
199.780035
 31
0.0
  0
LINE
  5
240
100
AcDbEntity
  8
Layer_1
 62
7
100
AcDbLine
 10
69.342212
 20
199.780035
 30
0.0
 11
68.813046
 21
200.044619
 31
0.0
  0
LINE
  5
241
100
AcDbEntity
  8
Layer_1
 62
7
100
AcDbLine
 10
68.813046
 20
200.044619
 30
0.0
 11
68.019296
 21
200.044619
 31
0.0
  0
LINE
  5
242
100
AcDbEntity
  8
Layer_1
 62
7
100
AcDbLine
 10
71.988046
 20
200.044619
 30
0.0
 11
71.988046
 21
197.398785
 31
0.0
  0
LINE
  5
243
100
AcDbEntity
  8
Layer_1
 62
7
100
AcDbLine
 10
71.988046
 20
197.398785
 30
0.0
 11
72.252629
 21
196.605035
 31
0.0
  0
LINE
  5
244
100
AcDbEntity
  8
Layer_1
 62
7
100
AcDbLine
 10
72.252629
 20
196.605035
 30
0.0
 11
72.781796
 21
196.340452
 31
0.0
  0
LINE
  5
245
100
AcDbEntity
  8
Layer_1
 62
7
100
AcDbLine
 10
72.781796
 20
196.340452
 30
0.0
 11
73.575546
 21
196.340452
 31
0.0
  0
LINE
  5
246
100
AcDbEntity
  8
Layer_1
 62
7
100
AcDbLine
 10
73.575546
 20
196.340452
 30
0.0
 11
74.104712
 21
196.605035
 31
0.0
  0
LINE
  5
247
100
AcDbEntity
  8
Layer_1
 62
7
100
AcDbLine
 10
74.104712
 20
196.605035
 30
0.0
 11
74.898462
 21
197.398785
 31
0.0
  0
LINE
  5
248
100
AcDbEntity
  8
Layer_1
 62
7
100
AcDbLine
 10
74.898462
 20
200.044619
 30
0.0
 11
74.898462
 21
196.340452
 31
0.0
  0
LINE
  5
249
100
AcDbEntity
  8
Layer_1
 62
7
100
AcDbLine
 10
77.015129
 20
200.044619
 30
0.0
 11
77.015129
 21
196.340452
 31
0.0
  0
LINE
  5
24a
100
AcDbEntity
  8
Layer_1
 62
7
100
AcDbLine
 10
77.015129
 20
198.457119
 30
0.0
 11
77.279712
 21
199.250869
 31
0.0
  0
LINE
  5
24b
100
AcDbEntity
  8
Layer_1
 62
7
100
AcDbLine
 10
77.279712
 20
199.250869
 30
0.0
 11
77.808879
 21
199.780035
 31
0.0
  0
LINE
  5
24c
100
AcDbEntity
  8
Layer_1
 62
7
100
AcDbLine
 10
77.808879
 20
199.780035
 30
0.0
 11
78.338046
 21
200.044619
 31
0.0
  0
LINE
  5
24d
100
AcDbEntity
  8
Layer_1
 62
7
100
AcDbLine
 10
78.338046
 20
200.044619
 30
0.0
 11
79.131796
 21
200.044619
 31
0.0
  0
LINE
  5
24e
100
AcDbEntity
  8
Layer_1
 62
7
100
AcDbLine
 10
84.688045
 20
201.896702
 30
0.0
 11
84.688045
 21
196.340452
 31
0.0
  0
LINE
  5
24f
100
AcDbEntity
  8
Layer_1
 62
7
100
AcDbLine
 10
86.540129
 20
198.457119
 30
0.0
 11
89.715129
 21
198.457119
 31
0.0
  0
LINE
  5
250
100
AcDbEntity
  8
Layer_1
 62
7
100
AcDbLine
 10
89.715129
 20
198.457119
 30
0.0
 11
89.715129
 21
198.986285
 31
0.0
  0
LINE
  5
251
100
AcDbEntity
  8
Layer_1
 62
7
100
AcDbLine
 10
89.715129
 20
198.986285
 30
0.0
 11
89.450545
 21
199.515452
 31
0.0
  0
LINE
  5
252
100
AcDbEntity
  8
Layer_1
 62
7
100
AcDbLine
 10
89.450545
 20
199.515452
 30
0.0
 11
89.185962
 21
199.780035
 31
0.0
  0
LINE
  5
253
100
AcDbEntity
  8
Layer_1
 62
7
100
AcDbLine
 10
89.185962
 20
199.780035
 30
0.0
 11
88.656795
 21
200.044619
 31
0.0
  0
LINE
  5
254
100
AcDbEntity
  8
Layer_1
 62
7
100
AcDbLine
 10
88.656795
 20
200.044619
 30
0.0
 11
87.863045
 21
200.044619
 31
0.0
  0
LINE
  5
255
100
AcDbEntity
  8
Layer_1
 62
7
100
AcDbLine
 10
87.863045
 20
200.044619
 30
0.0
 11
87.333879
 21
199.780035
 31
0.0
  0
LINE
  5
256
100
AcDbEntity
  8
Layer_1
 62
7
100
AcDbLine
 10
87.333879
 20
199.780035
 30
0.0
 11
86.804712
 21
199.250869
 31
0.0
  0
LINE
  5
257
100
AcDbEntity
  8
Layer_1
 62
7
100
AcDbLine
 10
86.804712
 20
199.250869
 30
0.0
 11
86.540129
 21
198.457119
 31
0.0
  0
LINE
  5
258
100
AcDbEntity
  8
Layer_1
 62
7
100
AcDbLine
 10
86.540129
 20
198.457119
 30
0.0
 11
86.540129
 21
197.927952
 31
0.0
  0
LINE
  5
259
100
AcDbEntity
  8
Layer_1
 62
7
100
AcDbLine
 10
86.540129
 20
197.927952
 30
0.0
 11
86.804712
 21
197.134202
 31
0.0
  0
LINE
  5
25a
100
AcDbEntity
  8
Layer_1
 62
7
100
AcDbLine
 10
86.804712
 20
197.134202
 30
0.0
 11
87.333879
 21
196.605035
 31
0.0
  0
LINE
  5
25b
100
AcDbEntity
  8
Layer_1
 62
7
100
AcDbLine
 10
87.333879
 20
196.605035
 30
0.0
 11
87.863045
 21
196.340452
 31
0.0
  0
LINE
  5
25c
100
AcDbEntity
  8
Layer_1
 62
7
100
AcDbLine
 10
87.863045
 20
196.340452
 30
0.0
 11
88.656795
 21
196.340452
 31
0.0
  0
LINE
  5
25d
100
AcDbEntity
  8
Layer_1
 62
7
100
AcDbLine
 10
88.656795
 20
196.340452
 30
0.0
 11
89.185962
 21
196.605035
 31
0.0
  0
LINE
  5
25e
100
AcDbEntity
  8
Layer_1
 62
7
100
AcDbLine
 10
89.185962
 20
196.605035
 30
0.0
 11
89.715129
 21
197.134202
 31
0.0
  0
LINE
  5
25f
100
AcDbEntity
  8
Layer_1
 62
7
100
AcDbLine
 10
94.213045
 20
199.250869
 30
0.0
 11
93.948462
 21
199.780035
 31
0.0
  0
LINE
  5
260
100
AcDbEntity
  8
Layer_1
 62
7
100
AcDbLine
 10
93.948462
 20
199.780035
 30
0.0
 11
93.154712
 21
200.044619
 31
0.0
  0
LINE
  5
261
100
AcDbEntity
  8
Layer_1
 62
7
100
AcDbLine
 10
93.154712
 20
200.044619
 30
0.0
 11
92.360962
 21
200.044619
 31
0.0
  0
LINE
  5
262
100
AcDbEntity
  8
Layer_1
 62
7
100
AcDbLine
 10
92.360962
 20
200.044619
 30
0.0
 11
91.567212
 21
199.780035
 31
0.0
  0
LINE
  5
263
100
AcDbEntity
  8
Layer_1
 62
7
100
AcDbLine
 10
91.567212
 20
199.780035
 30
0.0
 11
91.302629
 21
199.250869
 31
0.0
  0
LINE
  5
264
100
AcDbEntity
  8
Layer_1
 62
7
100
AcDbLine
 10
91.302629
 20
199.250869
 30
0.0
 11
91.567212
 21
198.721702
 31
0.0
  0
LINE
  5
265
100
AcDbEntity
  8
Layer_1
 62
7
100
AcDbLine
 10
91.567212
 20
198.721702
 30
0.0
 11
92.096379
 21
198.457119
 31
0.0
  0
LINE
  5
266
100
AcDbEntity
  8
Layer_1
 62
7
100
AcDbLine
 10
92.096379
 20
198.457119
 30
0.0
 11
93.419295
 21
198.192535
 31
0.0
  0
LINE
  5
267
100
AcDbEntity
  8
Layer_1
 62
7
100
AcDbLine
 10
93.419295
 20
198.192535
 30
0.0
 11
93.948462
 21
197.927952
 31
0.0
  0
LINE
  5
268
100
AcDbEntity
  8
Layer_1
 62
7
100
AcDbLine
 10
93.948462
 20
197.927952
 30
0.0
 11
94.213045
 21
197.398785
 31
0.0
  0
LINE
  5
269
100
AcDbEntity
  8
Layer_1
 62
7
100
AcDbLine
 10
94.213045
 20
197.398785
 30
0.0
 11
94.213045
 21
197.134202
 31
0.0
  0
LINE
  5
26a
100
AcDbEntity
  8
Layer_1
 62
7
100
AcDbLine
 10
94.213045
 20
197.134202
 30
0.0
 11
93.948462
 21
196.605035
 31
0.0
  0
LINE
  5
26b
100
AcDbEntity
  8
Layer_1
 62
7
100
AcDbLine
 10
93.948462
 20
196.605035
 30
0.0
 11
93.154712
 21
196.340452
 31
0.0
  0
LINE
  5
26c
100
AcDbEntity
  8
Layer_1
 62
7
100
AcDbLine
 10
93.154712
 20
196.340452
 30
0.0
 11
92.360962
 21
196.340452
 31
0.0
  0
LINE
  5
26d
100
AcDbEntity
  8
Layer_1
 62
7
100
AcDbLine
 10
92.360962
 20
196.340452
 30
0.0
 11
91.567212
 21
196.605035
 31
0.0
  0
LINE
  5
26e
100
AcDbEntity
  8
Layer_1
 62
7
100
AcDbLine
 10
91.567212
 20
196.605035
 30
0.0
 11
91.302629
 21
197.134202
 31
0.0
  0
LINE
  5
26f
100
AcDbEntity
  8
Layer_1
 62
7
100
AcDbLine
 10
100.298462
 20
201.896702
 30
0.0
 11
100.298462
 21
196.340452
 31
0.0
  0
LINE
  5
270
100
AcDbEntity
  8
Layer_1
 62
7
100
AcDbLine
 10
100.298462
 20
199.250869
 30
0.0
 11
100.827629
 21
199.780035
 31
0.0
  0
LINE
  5
271
100
AcDbEntity
  8
Layer_1
 62
7
100
AcDbLine
 10
100.827629
 20
199.780035
 30
0.0
 11
101.356795
 21
200.044619
 31
0.0
  0
LINE
  5
272
100
AcDbEntity
  8
Layer_1
 62
7
100
AcDbLine
 10
101.356795
 20
200.044619
 30
0.0
 11
102.150545
 21
200.044619
 31
0.0
  0
LINE
  5
273
100
AcDbEntity
  8
Layer_1
 62
7
100
AcDbLine
 10
102.150545
 20
200.044619
 30
0.0
 11
102.679712
 21
199.780035
 31
0.0
  0
LINE
  5
274
100
AcDbEntity
  8
Layer_1
 62
7
100
AcDbLine
 10
102.679712
 20
199.780035
 30
0.0
 11
103.208879
 21
199.250869
 31
0.0
  0
LINE
  5
275
100
AcDbEntity
  8
Layer_1
 62
7
100
AcDbLine
 10
103.208879
 20
199.250869
 30
0.0
 11
103.473462
 21
198.457119
 31
0.0
  0
LINE
  5
276
100
AcDbEntity
  8
Layer_1
 62
7
100
AcDbLine
 10
103.473462
 20
198.457119
 30
0.0
 11
103.473462
 21
197.927952
 31
0.0
  0
LINE
  5
277
100
AcDbEntity
  8
Layer_1
 62
7
100
AcDbLine
 10
103.473462
 20
197.927952
 30
0.0
 11
103.208879
 21
197.134202
 31
0.0
  0
LINE
  5
278
100
AcDbEntity
  8
Layer_1
 62
7
100
AcDbLine
 10
103.208879
 20
197.134202
 30
0.0
 11
102.679712
 21
196.605035
 31
0.0
  0
LINE
  5
279
100
AcDbEntity
  8
Layer_1
 62
7
100
AcDbLine
 10
102.679712
 20
196.605035
 30
0.0
 11
102.150545
 21
196.340452
 31
0.0
  0
LINE
  5
27a
100
AcDbEntity
  8
Layer_1
 62
7
100
AcDbLine
 10
102.150545
 20
196.340452
 30
0.0
 11
101.356795
 21
196.340452
 31
0.0
  0
LINE
  5
27b
100
AcDbEntity
  8
Layer_1
 62
7
100
AcDbLine
 10
101.356795
 20
196.340452
 30
0.0
 11
100.827629
 21
196.605035
 31
0.0
  0
LINE
  5
27c
100
AcDbEntity
  8
Layer_1
 62
7
100
AcDbLine
 10
100.827629
 20
196.605035
 30
0.0
 11
100.298462
 21
197.134202
 31
0.0
  0
LINE
  5
27d
100
AcDbEntity
  8
Layer_1
 62
7
100
AcDbLine
 10
106.383879
 20
200.044619
 30
0.0
 11
105.854712
 21
199.780035
 31
0.0
  0
LINE
  5
27e
100
AcDbEntity
  8
Layer_1
 62
7
100
AcDbLine
 10
105.854712
 20
199.780035
 30
0.0
 11
105.325545
 21
199.250869
 31
0.0
  0
LINE
  5
27f
100
AcDbEntity
  8
Layer_1
 62
7
100
AcDbLine
 10
105.325545
 20
199.250869
 30
0.0
 11
105.060962
 21
198.457119
 31
0.0
  0
LINE
  5
280
100
AcDbEntity
  8
Layer_1
 62
7
100
AcDbLine
 10
105.060962
 20
198.457119
 30
0.0
 11
105.060962
 21
197.927952
 31
0.0
  0
LINE
  5
281
100
AcDbEntity
  8
Layer_1
 62
7
100
AcDbLine
 10
105.060962
 20
197.927952
 30
0.0
 11
105.325545
 21
197.134202
 31
0.0
  0
LINE
  5
282
100
AcDbEntity
  8
Layer_1
 62
7
100
AcDbLine
 10
105.325545
 20
197.134202
 30
0.0
 11
105.854712
 21
196.605035
 31
0.0
  0
LINE
  5
283
100
AcDbEntity
  8
Layer_1
 62
7
100
AcDbLine
 10
105.854712
 20
196.605035
 30
0.0
 11
106.383879
 21
196.340452
 31
0.0
  0
LINE
  5
284
100
AcDbEntity
  8
Layer_1
 62
7
100
AcDbLine
 10
106.383879
 20
196.340452
 30
0.0
 11
107.177629
 21
196.340452
 31
0.0
  0
LINE
  5
285
100
AcDbEntity
  8
Layer_1
 62
7
100
AcDbLine
 10
107.177629
 20
196.340452
 30
0.0
 11
107.706795
 21
196.605035
 31
0.0
  0
LINE
  5
286
100
AcDbEntity
  8
Layer_1
 62
7
100
AcDbLine
 10
107.706795
 20
196.605035
 30
0.0
 11
108.235962
 21
197.134202
 31
0.0
  0
LINE
  5
287
100
AcDbEntity
  8
Layer_1
 62
7
100
AcDbLine
 10
108.235962
 20
197.134202
 30
0.0
 11
108.500545
 21
197.927952
 31
0.0
  0
LINE
  5
288
100
AcDbEntity
  8
Layer_1
 62
7
100
AcDbLine
 10
108.500545
 20
197.927952
 30
0.0
 11
108.500545
 21
198.457119
 31
0.0
  0
LINE
  5
289
100
AcDbEntity
  8
Layer_1
 62
7
100
AcDbLine
 10
108.500545
 20
198.457119
 30
0.0
 11
108.235962
 21
199.250869
 31
0.0
  0
LINE
  5
28a
100
AcDbEntity
  8
Layer_1
 62
7
100
AcDbLine
 10
108.235962
 20
199.250869
 30
0.0
 11
107.706795
 21
199.780035
 31
0.0
  0
LINE
  5
28b
100
AcDbEntity
  8
Layer_1
 62
7
100
AcDbLine
 10
107.706795
 20
199.780035
 30
0.0
 11
107.177629
 21
200.044619
 31
0.0
  0
LINE
  5
28c
100
AcDbEntity
  8
Layer_1
 62
7
100
AcDbLine
 10
107.177629
 20
200.044619
 30
0.0
 11
106.383879
 21
200.044619
 31
0.0
  0
LINE
  5
28d
100
AcDbEntity
  8
Layer_1
 62
7
100
AcDbLine
 10
110.352628
 20
200.044619
 30
0.0
 11
110.352628
 21
197.398785
 31
0.0
  0
LINE
  5
28e
100
AcDbEntity
  8
Layer_1
 62
7
100
AcDbLine
 10
110.352628
 20
197.398785
 30
0.0
 11
110.617212
 21
196.605035
 31
0.0
  0
LINE
  5
28f
100
AcDbEntity
  8
Layer_1
 62
7
100
AcDbLine
 10
110.617212
 20
196.605035
 30
0.0
 11
111.146378
 21
196.340452
 31
0.0
  0
LINE
  5
290
100
AcDbEntity
  8
Layer_1
 62
7
100
AcDbLine
 10
111.146378
 20
196.340452
 30
0.0
 11
111.940128
 21
196.340452
 31
0.0
  0
LINE
  5
291
100
AcDbEntity
  8
Layer_1
 62
7
100
AcDbLine
 10
111.940128
 20
196.340452
 30
0.0
 11
112.469295
 21
196.605035
 31
0.0
  0
LINE
  5
292
100
AcDbEntity
  8
Layer_1
 62
7
100
AcDbLine
 10
112.469295
 20
196.605035
 30
0.0
 11
113.263045
 21
197.398785
 31
0.0
  0
LINE
  5
293
100
AcDbEntity
  8
Layer_1
 62
7
100
AcDbLine
 10
113.263045
 20
200.044619
 30
0.0
 11
113.263045
 21
196.340452
 31
0.0
  0
LINE
  5
294
100
AcDbEntity
  8
Layer_1
 62
7
100
AcDbLine
 10
115.644295
 20
201.896702
 30
0.0
 11
115.644295
 21
197.398785
 31
0.0
  0
LINE
  5
295
100
AcDbEntity
  8
Layer_1
 62
7
100
AcDbLine
 10
115.644295
 20
197.398785
 30
0.0
 11
115.908878
 21
196.605035
 31
0.0
  0
LINE
  5
296
100
AcDbEntity
  8
Layer_1
 62
7
100
AcDbLine
 10
115.908878
 20
196.605035
 30
0.0
 11
116.438045
 21
196.340452
 31
0.0
  0
LINE
  5
297
100
AcDbEntity
  8
Layer_1
 62
7
100
AcDbLine
 10
116.438045
 20
196.340452
 30
0.0
 11
116.967212
 21
196.340452
 31
0.0
  0
LINE
  5
298
100
AcDbEntity
  8
Layer_1
 62
7
100
AcDbLine
 10
114.850545
 20
200.044619
 30
0.0
 11
116.702628
 21
200.044619
 31
0.0
  0
LINE
  5
299
100
AcDbEntity
  8
Layer_1
 62
7
100
AcDbLine
 10
119.613045
 20
200.044619
 30
0.0
 11
119.083878
 21
199.780035
 31
0.0
  0
LINE
  5
29a
100
AcDbEntity
  8
Layer_1
 62
7
100
AcDbLine
 10
119.083878
 20
199.780035
 30
0.0
 11
118.554712
 21
199.250869
 31
0.0
  0
LINE
  5
29b
100
AcDbEntity
  8
Layer_1
 62
7
100
AcDbLine
 10
118.554712
 20
199.250869
 30
0.0
 11
118.290128
 21
198.457119
 31
0.0
  0
LINE
  5
29c
100
AcDbEntity
  8
Layer_1
 62
7
100
AcDbLine
 10
118.290128
 20
198.457119
 30
0.0
 11
118.290128
 21
197.927952
 31
0.0
  0
LINE
  5
29d
100
AcDbEntity
  8
Layer_1
 62
7
100
AcDbLine
 10
118.290128
 20
197.927952
 30
0.0
 11
118.554712
 21
197.134202
 31
0.0
  0
LINE
  5
29e
100
AcDbEntity
  8
Layer_1
 62
7
100
AcDbLine
 10
118.554712
 20
197.134202
 30
0.0
 11
119.083878
 21
196.605035
 31
0.0
  0
LINE
  5
29f
100
AcDbEntity
  8
Layer_1
 62
7
100
AcDbLine
 10
119.083878
 20
196.605035
 30
0.0
 11
119.613045
 21
196.340452
 31
0.0
  0
LINE
  5
2a0
100
AcDbEntity
  8
Layer_1
 62
7
100
AcDbLine
 10
119.613045
 20
196.340452
 30
0.0
 11
120.406795
 21
196.340452
 31
0.0
  0
LINE
  5
2a1
100
AcDbEntity
  8
Layer_1
 62
7
100
AcDbLine
 10
120.406795
 20
196.340452
 30
0.0
 11
120.935962
 21
196.605035
 31
0.0
  0
LINE
  5
2a2
100
AcDbEntity
  8
Layer_1
 62
7
100
AcDbLine
 10
120.935962
 20
196.605035
 30
0.0
 11
121.465128
 21
197.134202
 31
0.0
  0
LINE
  5
2a3
100
AcDbEntity
  8
Layer_1
 62
7
100
AcDbLine
 10
121.465128
 20
197.134202
 30
0.0
 11
121.729712
 21
197.927952
 31
0.0
  0
LINE
  5
2a4
100
AcDbEntity
  8
Layer_1
 62
7
100
AcDbLine
 10
121.729712
 20
197.927952
 30
0.0
 11
121.729712
 21
198.457119
 31
0.0
  0
LINE
  5
2a5
100
AcDbEntity
  8
Layer_1
 62
7
100
AcDbLine
 10
121.729712
 20
198.457119
 30
0.0
 11
121.465128
 21
199.250869
 31
0.0
  0
LINE
  5
2a6
100
AcDbEntity
  8
Layer_1
 62
7
100
AcDbLine
 10
121.465128
 20
199.250869
 30
0.0
 11
120.935962
 21
199.780035
 31
0.0
  0
LINE
  5
2a7
100
AcDbEntity
  8
Layer_1
 62
7
100
AcDbLine
 10
120.935962
 20
199.780035
 30
0.0
 11
120.406795
 21
200.044619
 31
0.0
  0
LINE
  5
2a8
100
AcDbEntity
  8
Layer_1
 62
7
100
AcDbLine
 10
120.406795
 20
200.044619
 30
0.0
 11
119.613045
 21
200.044619
 31
0.0
  0
LINE
  5
2a9
100
AcDbEntity
  8
Layer_1
 62
7
100
AcDbLine
 10
123.581795
 20
200.044619
 30
0.0
 11
123.581795
 21
196.340452
 31
0.0
  0
LINE
  5
2aa
100
AcDbEntity
  8
Layer_1
 62
7
100
AcDbLine
 10
123.581795
 20
198.986285
 30
0.0
 11
124.375545
 21
199.780035
 31
0.0
  0
LINE
  5
2ab
100
AcDbEntity
  8
Layer_1
 62
7
100
AcDbLine
 10
124.375545
 20
199.780035
 30
0.0
 11
124.904712
 21
200.044619
 31
0.0
  0
LINE
  5
2ac
100
AcDbEntity
  8
Layer_1
 62
7
100
AcDbLine
 10
124.904712
 20
200.044619
 30
0.0
 11
125.698462
 21
200.044619
 31
0.0
  0
LINE
  5
2ad
100
AcDbEntity
  8
Layer_1
 62
7
100
AcDbLine
 10
125.698462
 20
200.044619
 30
0.0
 11
126.227628
 21
199.780035
 31
0.0
  0
LINE
  5
2ae
100
AcDbEntity
  8
Layer_1
 62
7
100
AcDbLine
 10
126.227628
 20
199.780035
 30
0.0
 11
126.492212
 21
198.986285
 31
0.0
  0
LINE
  5
2af
100
AcDbEntity
  8
Layer_1
 62
7
100
AcDbLine
 10
126.492212
 20
198.986285
 30
0.0
 11
126.492212
 21
196.340452
 31
0.0
  0
LINE
  5
2b0
100
AcDbEntity
  8
Layer_1
 62
7
100
AcDbLine
 10
131.254712
 20
199.250869
 30
0.0
 11
130.990128
 21
199.780035
 31
0.0
  0
LINE
  5
2b1
100
AcDbEntity
  8
Layer_1
 62
7
100
AcDbLine
 10
130.990128
 20
199.780035
 30
0.0
 11
130.196378
 21
200.044619
 31
0.0
  0
LINE
  5
2b2
100
AcDbEntity
  8
Layer_1
 62
7
100
AcDbLine
 10
130.196378
 20
200.044619
 30
0.0
 11
129.402628
 21
200.044619
 31
0.0
  0
LINE
  5
2b3
100
AcDbEntity
  8
Layer_1
 62
7
100
AcDbLine
 10
129.402628
 20
200.044619
 30
0.0
 11
128.608878
 21
199.780035
 31
0.0
  0
LINE
  5
2b4
100
AcDbEntity
  8
Layer_1
 62
7
100
AcDbLine
 10
128.608878
 20
199.780035
 30
0.0
 11
128.344295
 21
199.250869
 31
0.0
  0
LINE
  5
2b5
100
AcDbEntity
  8
Layer_1
 62
7
100
AcDbLine
 10
128.344295
 20
199.250869
 30
0.0
 11
128.608878
 21
198.721702
 31
0.0
  0
LINE
  5
2b6
100
AcDbEntity
  8
Layer_1
 62
7
100
AcDbLine
 10
128.608878
 20
198.721702
 30
0.0
 11
129.138045
 21
198.457119
 31
0.0
  0
LINE
  5
2b7
100
AcDbEntity
  8
Layer_1
 62
7
100
AcDbLine
 10
129.138045
 20
198.457119
 30
0.0
 11
130.460962
 21
198.192535
 31
0.0
  0
LINE
  5
2b8
100
AcDbEntity
  8
Layer_1
 62
7
100
AcDbLine
 10
130.460962
 20
198.192535
 30
0.0
 11
130.990128
 21
197.927952
 31
0.0
  0
LINE
  5
2b9
100
AcDbEntity
  8
Layer_1
 62
7
100
AcDbLine
 10
130.990128
 20
197.927952
 30
0.0
 11
131.254712
 21
197.398785
 31
0.0
  0
LINE
  5
2ba
100
AcDbEntity
  8
Layer_1
 62
7
100
AcDbLine
 10
131.254712
 20
197.398785
 30
0.0
 11
131.254712
 21
197.134202
 31
0.0
  0
LINE
  5
2bb
100
AcDbEntity
  8
Layer_1
 62
7
100
AcDbLine
 10
131.254712
 20
197.134202
 30
0.0
 11
130.990128
 21
196.605035
 31
0.0
  0
LINE
  5
2bc
100
AcDbEntity
  8
Layer_1
 62
7
100
AcDbLine
 10
130.990128
 20
196.605035
 30
0.0
 11
130.196378
 21
196.340452
 31
0.0
  0
LINE
  5
2bd
100
AcDbEntity
  8
Layer_1
 62
7
100
AcDbLine
 10
130.196378
 20
196.340452
 30
0.0
 11
129.402628
 21
196.340452
 31
0.0
  0
LINE
  5
2be
100
AcDbEntity
  8
Layer_1
 62
7
100
AcDbLine
 10
129.402628
 20
196.340452
 30
0.0
 11
128.608878
 21
196.605035
 31
0.0
  0
LINE
  5
2bf
100
AcDbEntity
  8
Layer_1
 62
7
100
AcDbLine
 10
128.608878
 20
196.605035
 30
0.0
 11
128.344295
 21
197.134202
 31
0.0
  0
LINE
  5
2c0
100
AcDbEntity
  8
Layer_1
 62
7
100
AcDbLine
 10
142.367211
 20
199.515452
 30
0.0
 11
142.367211
 21
199.780035
 31
0.0
  0
LINE
  5
2c1
100
AcDbEntity
  8
Layer_1
 62
7
100
AcDbLine
 10
142.367211
 20
199.780035
 30
0.0
 11
142.102628
 21
200.044619
 31
0.0
  0
LINE
  5
2c2
100
AcDbEntity
  8
Layer_1
 62
7
100
AcDbLine
 10
142.102628
 20
200.044619
 30
0.0
 11
141.838045
 21
200.044619
 31
0.0
  0
LINE
  5
2c3
100
AcDbEntity
  8
Layer_1
 62
7
100
AcDbLine
 10
141.838045
 20
200.044619
 30
0.0
 11
141.573461
 21
199.780035
 31
0.0
  0
LINE
  5
2c4
100
AcDbEntity
  8
Layer_1
 62
7
100
AcDbLine
 10
141.573461
 20
199.780035
 30
0.0
 11
141.308878
 21
199.250869
 31
0.0
  0
LINE
  5
2c5
100
AcDbEntity
  8
Layer_1
 62
7
100
AcDbLine
 10
141.308878
 20
199.250869
 30
0.0
 11
140.779711
 21
197.927952
 31
0.0
  0
LINE
  5
2c6
100
AcDbEntity
  8
Layer_1
 62
7
100
AcDbLine
 10
140.779711
 20
197.927952
 30
0.0
 11
140.250545
 21
197.134202
 31
0.0
  0
LINE
  5
2c7
100
AcDbEntity
  8
Layer_1
 62
7
100
AcDbLine
 10
140.250545
 20
197.134202
 30
0.0
 11
139.721378
 21
196.605035
 31
0.0
  0
LINE
  5
2c8
100
AcDbEntity
  8
Layer_1
 62
7
100
AcDbLine
 10
139.721378
 20
196.605035
 30
0.0
 11
139.192211
 21
196.340452
 31
0.0
  0
LINE
  5
2c9
100
AcDbEntity
  8
Layer_1
 62
7
100
AcDbLine
 10
139.192211
 20
196.340452
 30
0.0
 11
138.133878
 21
196.340452
 31
0.0
  0
LINE
  5
2ca
100
AcDbEntity
  8
Layer_1
 62
7
100
AcDbLine
 10
138.133878
 20
196.340452
 30
0.0
 11
137.604711
 21
196.605035
 31
0.0
  0
LINE
  5
2cb
100
AcDbEntity
  8
Layer_1
 62
7
100
AcDbLine
 10
137.604711
 20
196.605035
 30
0.0
 11
137.340128
 21
196.869619
 31
0.0
  0
LINE
  5
2cc
100
AcDbEntity
  8
Layer_1
 62
7
100
AcDbLine
 10
137.340128
 20
196.869619
 30
0.0
 11
137.075545
 21
197.398785
 31
0.0
  0
LINE
  5
2cd
100
AcDbEntity
  8
Layer_1
 62
7
100
AcDbLine
 10
137.075545
 20
197.398785
 30
0.0
 11
137.075545
 21
197.927952
 31
0.0
  0
LINE
  5
2ce
100
AcDbEntity
  8
Layer_1
 62
7
100
AcDbLine
 10
137.075545
 20
197.927952
 30
0.0
 11
137.340128
 21
198.457119
 31
0.0
  0
LINE
  5
2cf
100
AcDbEntity
  8
Layer_1
 62
7
100
AcDbLine
 10
137.340128
 20
198.457119
 30
0.0
 11
137.604711
 21
198.721702
 31
0.0
  0
LINE
  5
2d0
100
AcDbEntity
  8
Layer_1
 62
7
100
AcDbLine
 10
137.604711
 20
198.721702
 30
0.0
 11
139.456795
 21
199.780035
 31
0.0
  0
LINE
  5
2d1
100
AcDbEntity
  8
Layer_1
 62
7
100
AcDbLine
 10
139.456795
 20
199.780035
 30
0.0
 11
139.721378
 21
200.044619
 31
0.0
  0
LINE
  5
2d2
100
AcDbEntity
  8
Layer_1
 62
7
100
AcDbLine
 10
139.721378
 20
200.044619
 30
0.0
 11
139.985961
 21
200.573785
 31
0.0
  0
LINE
  5
2d3
100
AcDbEntity
  8
Layer_1
 62
7
100
AcDbLine
 10
139.985961
 20
200.573785
 30
0.0
 11
139.985961
 21
201.102952
 31
0.0
  0
LINE
  5
2d4
100
AcDbEntity
  8
Layer_1
 62
7
100
AcDbLine
 10
139.985961
 20
201.102952
 30
0.0
 11
139.721378
 21
201.632119
 31
0.0
  0
LINE
  5
2d5
100
AcDbEntity
  8
Layer_1
 62
7
100
AcDbLine
 10
139.721378
 20
201.632119
 30
0.0
 11
139.192211
 21
201.896702
 31
0.0
  0
LINE
  5
2d6
100
AcDbEntity
  8
Layer_1
 62
7
100
AcDbLine
 10
139.192211
 20
201.896702
 30
0.0
 11
138.663045
 21
201.632119
 31
0.0
  0
LINE
  5
2d7
100
AcDbEntity
  8
Layer_1
 62
7
100
AcDbLine
 10
138.663045
 20
201.632119
 30
0.0
 11
138.398461
 21
201.102952
 31
0.0
  0
LINE
  5
2d8
100
AcDbEntity
  8
Layer_1
 62
7
100
AcDbLine
 10
138.398461
 20
201.102952
 30
0.0
 11
138.398461
 21
200.573785
 31
0.0
  0
LINE
  5
2d9
100
AcDbEntity
  8
Layer_1
 62
7
100
AcDbLine
 10
138.398461
 20
200.573785
 30
0.0
 11
138.663045
 21
199.780035
 31
0.0
  0
LINE
  5
2da
100
AcDbEntity
  8
Layer_1
 62
7
100
AcDbLine
 10
138.663045
 20
199.780035
 30
0.0
 11
139.192211
 21
198.986285
 31
0.0
  0
LINE
  5
2db
100
AcDbEntity
  8
Layer_1
 62
7
100
AcDbLine
 10
139.192211
 20
198.986285
 30
0.0
 11
140.515128
 21
197.134202
 31
0.0
  0
LINE
  5
2dc
100
AcDbEntity
  8
Layer_1
 62
7
100
AcDbLine
 10
140.515128
 20
197.134202
 30
0.0
 11
141.044295
 21
196.605035
 31
0.0
  0
LINE
  5
2dd
100
AcDbEntity
  8
Layer_1
 62
7
100
AcDbLine
 10
141.044295
 20
196.605035
 30
0.0
 11
141.573461
 21
196.340452
 31
0.0
  0
LINE
  5
2de
100
AcDbEntity
  8
Layer_1
 62
7
100
AcDbLine
 10
141.573461
 20
196.340452
 30
0.0
 11
142.102628
 21
196.340452
 31
0.0
  0
LINE
  5
2df
100
AcDbEntity
  8
Layer_1
 62
7
100
AcDbLine
 10
142.102628
 20
196.340452
 30
0.0
 11
142.367211
 21
196.605035
 31
0.0
  0
LINE
  5
2e0
100
AcDbEntity
  8
Layer_1
 62
7
100
AcDbLine
 10
142.367211
 20
196.605035
 30
0.0
 11
142.367211
 21
196.869619
 31
0.0
  0
LINE
  5
2e1
100
AcDbEntity
  8
Layer_1
 62
7
100
AcDbLine
 10
148.717211
 20
201.896702
 30
0.0
 11
148.981795
 21
201.632119
 31
0.0
  0
LINE
  5
2e2
100
AcDbEntity
  8
Layer_1
 62
7
100
AcDbLine
 10
148.981795
 20
201.632119
 30
0.0
 11
149.246378
 21
201.896702
 31
0.0
  0
LINE
  5
2e3
100
AcDbEntity
  8
Layer_1
 62
7
100
AcDbLine
 10
149.246378
 20
201.896702
 30
0.0
 11
148.981795
 21
202.161285
 31
0.0
  0
LINE
  5
2e4
100
AcDbEntity
  8
Layer_1
 62
7
100
AcDbLine
 10
148.981795
 20
202.161285
 30
0.0
 11
148.717211
 21
201.896702
 31
0.0
  0
LINE
  5
2e5
100
AcDbEntity
  8
Layer_1
 62
7
100
AcDbLine
 10
148.981795
 20
200.044619
 30
0.0
 11
148.981795
 21
195.546702
 31
0.0
  0
LINE
  5
2e6
100
AcDbEntity
  8
Layer_1
 62
7
100
AcDbLine
 10
148.981795
 20
195.546702
 30
0.0
 11
148.717211
 21
194.752952
 31
0.0
  0
LINE
  5
2e7
100
AcDbEntity
  8
Layer_1
 62
7
100
AcDbLine
 10
148.717211
 20
194.752952
 30
0.0
 11
148.188045
 21
194.488369
 31
0.0
  0
LINE
  5
2e8
100
AcDbEntity
  8
Layer_1
 62
7
100
AcDbLine
 10
148.188045
 20
194.488369
 30
0.0
 11
147.658878
 21
194.488369
 31
0.0
  0
LINE
  5
2e9
100
AcDbEntity
  8
Layer_1
 62
7
100
AcDbLine
 10
152.156795
 20
200.044619
 30
0.0
 11
151.627628
 21
199.780035
 31
0.0
  0
LINE
  5
2ea
100
AcDbEntity
  8
Layer_1
 62
7
100
AcDbLine
 10
151.627628
 20
199.780035
 30
0.0
 11
151.098461
 21
199.250869
 31
0.0
  0
LINE
  5
2eb
100
AcDbEntity
  8
Layer_1
 62
7
100
AcDbLine
 10
151.098461
 20
199.250869
 30
0.0
 11
150.833878
 21
198.457119
 31
0.0
  0
LINE
  5
2ec
100
AcDbEntity
  8
Layer_1
 62
7
100
AcDbLine
 10
150.833878
 20
198.457119
 30
0.0
 11
150.833878
 21
197.927952
 31
0.0
  0
LINE
  5
2ed
100
AcDbEntity
  8
Layer_1
 62
7
100
AcDbLine
 10
150.833878
 20
197.927952
 30
0.0
 11
151.098461
 21
197.134202
 31
0.0
  0
LINE
  5
2ee
100
AcDbEntity
  8
Layer_1
 62
7
100
AcDbLine
 10
151.098461
 20
197.134202
 30
0.0
 11
151.627628
 21
196.605035
 31
0.0
  0
LINE
  5
2ef
100
AcDbEntity
  8
Layer_1
 62
7
100
AcDbLine
 10
151.627628
 20
196.605035
 30
0.0
 11
152.156795
 21
196.340452
 31
0.0
  0
LINE
  5
2f0
100
AcDbEntity
  8
Layer_1
 62
7
100
AcDbLine
 10
152.156795
 20
196.340452
 30
0.0
 11
152.950545
 21
196.340452
 31
0.0
  0
LINE
  5
2f1
100
AcDbEntity
  8
Layer_1
 62
7
100
AcDbLine
 10
152.950545
 20
196.340452
 30
0.0
 11
153.479711
 21
196.605035
 31
0.0
  0
LINE
  5
2f2
100
AcDbEntity
  8
Layer_1
 62
7
100
AcDbLine
 10
153.479711
 20
196.605035
 30
0.0
 11
154.008878
 21
197.134202
 31
0.0
  0
LINE
  5
2f3
100
AcDbEntity
  8
Layer_1
 62
7
100
AcDbLine
 10
154.008878
 20
197.134202
 30
0.0
 11
154.273461
 21
197.927952
 31
0.0
  0
LINE
  5
2f4
100
AcDbEntity
  8
Layer_1
 62
7
100
AcDbLine
 10
154.273461
 20
197.927952
 30
0.0
 11
154.273461
 21
198.457119
 31
0.0
  0
LINE
  5
2f5
100
AcDbEntity
  8
Layer_1
 62
7
100
AcDbLine
 10
154.273461
 20
198.457119
 30
0.0
 11
154.008878
 21
199.250869
 31
0.0
  0
LINE
  5
2f6
100
AcDbEntity
  8
Layer_1
 62
7
100
AcDbLine
 10
154.008878
 20
199.250869
 30
0.0
 11
153.479711
 21
199.780035
 31
0.0
  0
LINE
  5
2f7
100
AcDbEntity
  8
Layer_1
 62
7
100
AcDbLine
 10
153.479711
 20
199.780035
 30
0.0
 11
152.950545
 21
200.044619
 31
0.0
  0
LINE
  5
2f8
100
AcDbEntity
  8
Layer_1
 62
7
100
AcDbLine
 10
152.950545
 20
200.044619
 30
0.0
 11
152.156795
 21
200.044619
 31
0.0
  0
LINE
  5
2f9
100
AcDbEntity
  8
Layer_1
 62
7
100
AcDbLine
 10
155.596378
 20
200.044619
 30
0.0
 11
157.183878
 21
196.340452
 31
0.0
  0
LINE
  5
2fa
100
AcDbEntity
  8
Layer_1
 62
7
100
AcDbLine
 10
158.771378
 20
200.044619
 30
0.0
 11
157.183878
 21
196.340452
 31
0.0
  0
LINE
  5
2fb
100
AcDbEntity
  8
Layer_1
 62
7
100
AcDbLine
 10
157.183878
 20
196.340452
 30
0.0
 11
156.654711
 21
195.282119
 31
0.0
  0
LINE
  5
2fc
100
AcDbEntity
  8
Layer_1
 62
7
100
AcDbLine
 10
156.654711
 20
195.282119
 30
0.0
 11
156.125545
 21
194.752952
 31
0.0
  0
LINE
  5
2fd
100
AcDbEntity
  8
Layer_1
 62
7
100
AcDbLine
 10
156.125545
 20
194.752952
 30
0.0
 11
155.596378
 21
194.488369
 31
0.0
  0
LINE
  5
2fe
100
AcDbEntity
  8
Layer_1
 62
7
100
AcDbLine
 10
155.596378
 20
194.488369
 30
0.0
 11
155.331795
 21
194.488369
 31
0.0
  0
LINE
  5
2ff
100
AcDbEntity
  8
Layer_1
 62
7
100
AcDbLine
 10
163.004711
 20
199.250869
 30
0.0
 11
162.740128
 21
199.780035
 31
0.0
  0
LINE
  5
300
100
AcDbEntity
  8
Layer_1
 62
7
100
AcDbLine
 10
162.740128
 20
199.780035
 30
0.0
 11
161.946378
 21
200.044619
 31
0.0
  0
LINE
  5
301
100
AcDbEntity
  8
Layer_1
 62
7
100
AcDbLine
 10
161.946378
 20
200.044619
 30
0.0
 11
161.152628
 21
200.044619
 31
0.0
  0
LINE
  5
302
100
AcDbEntity
  8
Layer_1
 62
7
100
AcDbLine
 10
161.152628
 20
200.044619
 30
0.0
 11
160.358878
 21
199.780035
 31
0.0
  0
LINE
  5
303
100
AcDbEntity
  8
Layer_1
 62
7
100
AcDbLine
 10
160.358878
 20
199.780035
 30
0.0
 11
160.094295
 21
199.250869
 31
0.0
  0
LINE
  5
304
100
AcDbEntity
  8
Layer_1
 62
7
100
AcDbLine
 10
160.094295
 20
199.250869
 30
0.0
 11
160.358878
 21
198.721702
 31
0.0
  0
LINE
  5
305
100
AcDbEntity
  8
Layer_1
 62
7
100
AcDbLine
 10
160.358878
 20
198.721702
 30
0.0
 11
160.888045
 21
198.457119
 31
0.0
  0
LINE
  5
306
100
AcDbEntity
  8
Layer_1
 62
7
100
AcDbLine
 10
160.888045
 20
198.457119
 30
0.0
 11
162.210961
 21
198.192535
 31
0.0
  0
LINE
  5
307
100
AcDbEntity
  8
Layer_1
 62
7
100
AcDbLine
 10
162.210961
 20
198.192535
 30
0.0
 11
162.740128
 21
197.927952
 31
0.0
  0
LINE
  5
308
100
AcDbEntity
  8
Layer_1
 62
7
100
AcDbLine
 10
162.740128
 20
197.927952
 30
0.0
 11
163.004711
 21
197.398785
 31
0.0
  0
LINE
  5
309
100
AcDbEntity
  8
Layer_1
 62
7
100
AcDbLine
 10
163.004711
 20
197.398785
 30
0.0
 11
163.004711
 21
197.134202
 31
0.0
  0
LINE
  5
30a
100
AcDbEntity
  8
Layer_1
 62
7
100
AcDbLine
 10
163.004711
 20
197.134202
 30
0.0
 11
162.740128
 21
196.605035
 31
0.0
  0
LINE
  5
30b
100
AcDbEntity
  8
Layer_1
 62
7
100
AcDbLine
 10
162.740128
 20
196.605035
 30
0.0
 11
161.946378
 21
196.340452
 31
0.0
  0
LINE
  5
30c
100
AcDbEntity
  8
Layer_1
 62
7
100
AcDbLine
 10
161.946378
 20
196.340452
 30
0.0
 11
161.152628
 21
196.340452
 31
0.0
  0
LINE
  5
30d
100
AcDbEntity
  8
Layer_1
 62
7
100
AcDbLine
 10
161.152628
 20
196.340452
 30
0.0
 11
160.358878
 21
196.605035
 31
0.0
  0
LINE
  5
30e
100
AcDbEntity
  8
Layer_1
 62
7
100
AcDbLine
 10
160.358878
 20
196.605035
 30
0.0
 11
160.094295
 21
197.134202
 31
0.0
  0
LINE
  5
30f
100
AcDbEntity
  8
Layer_1
 62
7
100
AcDbLine
 10
165.121378
 20
201.896702
 30
0.0
 11
165.121378
 21
197.398785
 31
0.0
  0
LINE
  5
310
100
AcDbEntity
  8
Layer_1
 62
7
100
AcDbLine
 10
165.121378
 20
197.398785
 30
0.0
 11
165.385961
 21
196.605035
 31
0.0
  0
LINE
  5
311
100
AcDbEntity
  8
Layer_1
 62
7
100
AcDbLine
 10
165.385961
 20
196.605035
 30
0.0
 11
165.915128
 21
196.340452
 31
0.0
  0
LINE
  5
312
100
AcDbEntity
  8
Layer_1
 62
7
100
AcDbLine
 10
165.915128
 20
196.340452
 30
0.0
 11
166.444294
 21
196.340452
 31
0.0
  0
LINE
  5
313
100
AcDbEntity
  8
Layer_1
 62
7
100
AcDbLine
 10
164.327628
 20
200.044619
 30
0.0
 11
166.179711
 21
200.044619
 31
0.0
  0
LINE
  5
314
100
AcDbEntity
  8
Layer_1
 62
7
100
AcDbLine
 10
167.767211
 20
201.896702
 30
0.0
 11
168.031794
 21
201.632119
 31
0.0
  0
LINE
  5
315
100
AcDbEntity
  8
Layer_1
 62
7
100
AcDbLine
 10
168.031794
 20
201.632119
 30
0.0
 11
168.296378
 21
201.896702
 31
0.0
  0
LINE
  5
316
100
AcDbEntity
  8
Layer_1
 62
7
100
AcDbLine
 10
168.296378
 20
201.896702
 30
0.0
 11
168.031794
 21
202.161285
 31
0.0
  0
LINE
  5
317
100
AcDbEntity
  8
Layer_1
 62
7
100
AcDbLine
 10
168.031794
 20
202.161285
 30
0.0
 11
167.767211
 21
201.896702
 31
0.0
  0
LINE
  5
318
100
AcDbEntity
  8
Layer_1
 62
7
100
AcDbLine
 10
168.031794
 20
200.044619
 30
0.0
 11
168.031794
 21
196.340452
 31
0.0
  0
LINE
  5
319
100
AcDbEntity
  8
Layer_1
 62
7
100
AcDbLine
 10
173.058878
 20
199.250869
 30
0.0
 11
172.529711
 21
199.780035
 31
0.0
  0
LINE
  5
31a
100
AcDbEntity
  8
Layer_1
 62
7
100
AcDbLine
 10
172.529711
 20
199.780035
 30
0.0
 11
172.000544
 21
200.044619
 31
0.0
  0
LINE
  5
31b
100
AcDbEntity
  8
Layer_1
 62
7
100
AcDbLine
 10
172.000544
 20
200.044619
 30
0.0
 11
171.206794
 21
200.044619
 31
0.0
  0
LINE
  5
31c
100
AcDbEntity
  8
Layer_1
 62
7
100
AcDbLine
 10
171.206794
 20
200.044619
 30
0.0
 11
170.677628
 21
199.780035
 31
0.0
  0
LINE
  5
31d
100
AcDbEntity
  8
Layer_1
 62
7
100
AcDbLine
 10
170.677628
 20
199.780035
 30
0.0
 11
170.148461
 21
199.250869
 31
0.0
  0
LINE
  5
31e
100
AcDbEntity
  8
Layer_1
 62
7
100
AcDbLine
 10
170.148461
 20
199.250869
 30
0.0
 11
169.883878
 21
198.457119
 31
0.0
  0
LINE
  5
31f
100
AcDbEntity
  8
Layer_1
 62
7
100
AcDbLine
 10
169.883878
 20
198.457119
 30
0.0
 11
169.883878
 21
197.927952
 31
0.0
  0
LINE
  5
320
100
AcDbEntity
  8
Layer_1
 62
7
100
AcDbLine
 10
169.883878
 20
197.927952
 30
0.0
 11
170.148461
 21
197.134202
 31
0.0
  0
LINE
  5
321
100
AcDbEntity
  8
Layer_1
 62
7
100
AcDbLine
 10
170.148461
 20
197.134202
 30
0.0
 11
170.677628
 21
196.605035
 31
0.0
  0
LINE
  5
322
100
AcDbEntity
  8
Layer_1
 62
7
100
AcDbLine
 10
170.677628
 20
196.605035
 30
0.0
 11
171.206794
 21
196.340452
 31
0.0
  0
LINE
  5
323
100
AcDbEntity
  8
Layer_1
 62
7
100
AcDbLine
 10
171.206794
 20
196.340452
 30
0.0
 11
172.000544
 21
196.340452
 31
0.0
  0
LINE
  5
324
100
AcDbEntity
  8
Layer_1
 62
7
100
AcDbLine
 10
172.000544
 20
196.340452
 30
0.0
 11
172.529711
 21
196.605035
 31
0.0
  0
LINE
  5
325
100
AcDbEntity
  8
Layer_1
 62
7
100
AcDbLine
 10
172.529711
 20
196.605035
 30
0.0
 11
173.058878
 21
197.134202
 31
0.0
  0
LINE
  5
326
100
AcDbEntity
  8
Layer_1
 62
7
100
AcDbLine
 10
174.910961
 20
201.896702
 30
0.0
 11
174.910961
 21
196.340452
 31
0.0
  0
LINE
  5
327
100
AcDbEntity
  8
Layer_1
 62
7
100
AcDbLine
 10
177.556794
 20
200.044619
 30
0.0
 11
174.910961
 21
197.398785
 31
0.0
  0
LINE
  5
328
100
AcDbEntity
  8
Layer_1
 62
7
100
AcDbLine
 10
175.969294
 20
198.457119
 30
0.0
 11
177.821378
 21
196.340452
 31
0.0
  0
LINE
  5
329
100
AcDbEntity
  8
Layer_1
 62
7
100
AcDbLine
 10
182.054711
 20
199.250869
 30
0.0
 11
181.790128
 21
199.780035
 31
0.0
  0
LINE
  5
32a
100
AcDbEntity
  8
Layer_1
 62
7
100
AcDbLine
 10
181.790128
 20
199.780035
 30
0.0
 11
180.996378
 21
200.044619
 31
0.0
  0
LINE
  5
32b
100
AcDbEntity
  8
Layer_1
 62
7
100
AcDbLine
 10
180.996378
 20
200.044619
 30
0.0
 11
180.202628
 21
200.044619
 31
0.0
  0
LINE
  5
32c
100
AcDbEntity
  8
Layer_1
 62
7
100
AcDbLine
 10
180.202628
 20
200.044619
 30
0.0
 11
179.408878
 21
199.780035
 31
0.0
  0
LINE
  5
32d
100
AcDbEntity
  8
Layer_1
 62
7
100
AcDbLine
 10
179.408878
 20
199.780035
 30
0.0
 11
179.144294
 21
199.250869
 31
0.0
  0
LINE
  5
32e
100
AcDbEntity
  8
Layer_1
 62
7
100
AcDbLine
 10
179.144294
 20
199.250869
 30
0.0
 11
179.408878
 21
198.721702
 31
0.0
  0
LINE
  5
32f
100
AcDbEntity
  8
Layer_1
 62
7
100
AcDbLine
 10
179.408878
 20
198.721702
 30
0.0
 11
179.938044
 21
198.457119
 31
0.0
  0
LINE
  5
330
100
AcDbEntity
  8
Layer_1
 62
7
100
AcDbLine
 10
179.938044
 20
198.457119
 30
0.0
 11
181.260961
 21
198.192535
 31
0.0
  0
LINE
  5
331
100
AcDbEntity
  8
Layer_1
 62
7
100
AcDbLine
 10
181.260961
 20
198.192535
 30
0.0
 11
181.790128
 21
197.927952
 31
0.0
  0
LINE
  5
332
100
AcDbEntity
  8
Layer_1
 62
7
100
AcDbLine
 10
181.790128
 20
197.927952
 30
0.0
 11
182.054711
 21
197.398785
 31
0.0
  0
LINE
  5
333
100
AcDbEntity
  8
Layer_1
 62
7
100
AcDbLine
 10
182.054711
 20
197.398785
 30
0.0
 11
182.054711
 21
197.134202
 31
0.0
  0
LINE
  5
334
100
AcDbEntity
  8
Layer_1
 62
7
100
AcDbLine
 10
182.054711
 20
197.134202
 30
0.0
 11
181.790128
 21
196.605035
 31
0.0
  0
LINE
  5
335
100
AcDbEntity
  8
Layer_1
 62
7
100
AcDbLine
 10
181.790128
 20
196.605035
 30
0.0
 11
180.996378
 21
196.340452
 31
0.0
  0
LINE
  5
336
100
AcDbEntity
  8
Layer_1
 62
7
100
AcDbLine
 10
180.996378
 20
196.340452
 30
0.0
 11
180.202628
 21
196.340452
 31
0.0
  0
LINE
  5
337
100
AcDbEntity
  8
Layer_1
 62
7
100
AcDbLine
 10
180.202628
 20
196.340452
 30
0.0
 11
179.408878
 21
196.605035
 31
0.0
  0
LINE
  5
338
100
AcDbEntity
  8
Layer_1
 62
7
100
AcDbLine
 10
179.408878
 20
196.605035
 30
0.0
 11
179.144294
 21
197.134202
 31
0.0
  0
LINE
  5
339
100
AcDbEntity
  8
Layer_1
 62
7
100
AcDbLine
 10
184.171378
 20
201.896702
 30
0.0
 11
184.171378
 21
198.192535
 31
0.0
  0
LINE
  5
33a
100
AcDbEntity
  8
Layer_1
 62
7
100
AcDbLine
 10
184.171378
 20
196.869619
 30
0.0
 11
183.906794
 21
196.605035
 31
0.0
  0
LINE
  5
33b
100
AcDbEntity
  8
Layer_1
 62
7
100
AcDbLine
 10
183.906794
 20
196.605035
 30
0.0
 11
184.171378
 21
196.340452
 31
0.0
  0
LINE
  5
33c
100
AcDbEntity
  8
Layer_1
 62
7
100
AcDbLine
 10
184.171378
 20
196.340452
 30
0.0
 11
184.435961
 21
196.605035
 31
0.0
  0
LINE
  5
33d
100
AcDbEntity
  8
Layer_1
 62
7
100
AcDbLine
 10
184.435961
 20
196.605035
 30
0.0
 11
184.171378
 21
196.869619
 31
0.0
  0
ENDSEC
  0
SECTION
  2
OBJECTS
  0
DICTIONARY
  5
C
330
0
100
AcDbDictionary
  3
ACAD_GROUP
350
D
  3
ACAD_MLINESTYLE
350
17
  0
DICTIONARY
  5
D
330
C
100
AcDbDictionary
  0
DICTIONARY
  5
1A
330
C
100
AcDbDictionary
  0
DICTIONARY
  5
17
330
C
100
AcDbDictionary
  3
STANDARD
350
18
  0
DICTIONARY
  5
19
330
C
100
AcDbDictionary
  0
ENDSEC
  0
EOF
